MPSList_Begins
mps 0 28800.217869 0
mps 0 28616.863956 1 29
mps 0 28541.603260 1 10
mps 0 28510.000482 1 2
mps 0 28509.454113 1 3
mps 0 28450.602278 1 8
mps 0 19563.754777 1 11
mps 0 19537.369898 2 11 29
mps 1 26061.676489 0
mps 1 25933.498073 1 31
mps 1 25715.865301 1 4
mps 1 25602.892638 1 13
mps 1 25079.805388 1 9
mps 1 24282.917109 1 29
mps 1 23107.631304 1 10
mps 1 22999.421691 1 12
mps 1 22016.861918 1 3
mps 1 14680.326187 1 8
mps 1 14644.035375 2 10 12
mps 1 14150.542313 1 2
mps 1 13971.789258 2 2 9
mps 1 13194.908995 2 2 8
mps 2 16663.265197 0
mps 2 16572.554739 1 44
mps 2 16560.641301 1 11
mps 2 16552.608266 1 18
mps 2 16551.799227 1 9
mps 2 16486.037244 1 47
mps 2 16373.047810 1 0
mps 2 16353.843367 1 30
mps 2 16221.818070 1 31
mps 2 16192.220849 2 30 31
mps 2 15770.073058 1 13
mps 2 15705.445896 1 4
mps 2 14632.851002 1 29
mps 2 14499.712971 2 6 13
mps 2 13595.458434 1 10
mps 2 13266.345318 1 12
mps 2 13183.983755 1 3
mps 2 13167.224030 2 3 4
mps 2 13104.340272 2 4 12
mps 2 13031.362927 2 12 29
mps 2 12700.426964 2 3 29
mps 2 12588.094009 2 10 29
mps 2 12480.913775 2 12 13
mps 2 12323.462281 2 3 10
mps 2 11673.612122 2 3 12
mps 2 10973.346725 3 6 12 13
mps 2 6553.492099 1 8
mps 2 6430.607563 2 8 12
mps 2 4752.131021 1 1
mps 2 3201.452421 2 10 12
mps 3 15469.043267 0
mps 3 15465.370279 1 7
mps 3 15456.576516 1 18
mps 3 15419.010702 1 6
mps 3 15402.877091 1 11
mps 3 15334.670056 1 44
mps 3 15200.289804 1 47
mps 3 15178.279511 1 0
mps 3 15085.608510 1 31
mps 3 15038.810533 1 30
mps 3 15002.269074 1 9
mps 3 14537.062325 1 4
mps 3 14294.457904 1 13
mps 3 13222.836122 2 6 13
mps 3 13098.764440 1 29
mps 3 12408.801609 1 12
mps 3 12190.653138 2 12 13
mps 3 12077.267722 2 9 12
mps 3 11989.761825 1 2
mps 3 11815.991363 2 2 13
mps 3 11769.047905 2 2 9
mps 3 11738.183408 1 10
mps 3 11661.955609 2 9 10
mps 3 11424.228696 1 1
mps 3 11166.340403 2 2 29
mps 3 10816.068413 2 2 12
mps 3 10466.187256 2 2 10
mps 3 9846.101681 2 10 29
mps 3 6221.002696 1 8
mps 3 6160.104789 2 8 10
mps 3 6101.325427 2 8 9
mps 3 6093.559571 2 8 12
mps 3 3323.035769 2 10 12
mps 4 27236.422405 0
mps 4 27136.156578 1 31
mps 4 27088.999690 1 12
mps 4 26907.182483 1 6
mps 4 26890.611216 1 1
mps 4 26534.843312 1 14
mps 4 26447.903388 1 29
mps 4 26411.550674 1 10
mps 4 26304.441462 1 3
mps 4 26278.603104 1 2
mps 4 26222.878310 2 2 14
mps 4 26096.745505 1 8
mps 4 25953.328532 1 13
mps 5 81.761565 0
mps 6 35693.704427 0
mps 6 35676.513798 1 25
mps 6 35673.616611 1 15
mps 6 35643.671862 1 3
mps 6 35598.926380 1 26
mps 6 35516.307003 1 37
mps 6 35490.555037 1 33
mps 6 35466.398175 1 38
mps 6 35465.834126 1 35
mps 6 35437.990889 1 31
mps 6 35429.074668 1 34
mps 6 35411.947789 1 12
mps 6 35364.464505 1 4
mps 6 35184.783115 1 44
mps 6 35100.259759 1 41
mps 6 35073.469116 1 47
mps 6 35013.715861 1 30
mps 6 34740.300198 1 40
mps 6 34653.763391 1 32
mps 6 33854.637287 1 29
mps 6 32721.932478 1 23
mps 6 29761.447318 1 10
mps 6 29666.628244 2 10 29
mps 6 23656.247959 1 13
mps 6 22584.626178 2 3 13
mps 6 22470.903439 2 8 13
mps 6 22385.887873 2 2 13
mps 6 5712.801054 2 10 13
mps 7 34631.070374 0
mps 7 34629.943042 1 42
mps 7 34628.188234 1 12
mps 7 34627.397386 1 3
mps 7 34600.896072 1 23
mps 7 34564.943175 1 31
mps 7 34539.972417 1 30
mps 7 34495.579493 1 47
mps 7 34449.759627 1 37
mps 7 34425.025586 1 24
mps 7 34423.184777 1 44
mps 7 34165.125319 1 41
mps 7 34152.420434 1 33
mps 7 34133.862182 1 34
mps 7 34048.598517 1 27
mps 7 33795.184099 1 40
mps 7 33762.903038 1 29
mps 7 33706.770720 1 32
mps 7 33569.263875 2 29 32
mps 8 25803.602023 0
mps 8 25756.244118 1 18
mps 8 25728.524546 1 11
mps 8 25689.053397 1 44
mps 8 25546.913622 1 47
mps 8 25453.986432 1 0
mps 8 25362.336313 1 30
mps 8 25304.190299 1 31
mps 8 24663.925124 1 4
mps 8 24544.988271 1 13
mps 8 23359.643751 2 6 13
mps 8 22979.694150 1 29
mps 8 21869.872673 1 12
mps 8 21700.259018 1 10
mps 8 21369.978338 2 12 13
mps 8 19899.138818 2 10 29
mps 8 16555.561452 1 3
mps 8 16344.086744 2 3 29
mps 8 16122.180398 2 3 10
mps 8 15693.828925 1 2
mps 8 15554.630634 2 3 12
mps 8 15113.739184 2 2 29
mps 8 15034.134918 2 2 12
mps 8 14933.882306 2 2 10
mps 8 14422.251721 1 1
mps 8 10698.054452 2 1 3
mps 8 10117.008284 2 2 3
mps 8 9137.951172 2 10 12
mps 9 28717.935923 0
mps 9 28606.469952 1 2
mps 9 28308.120258 1 27
mps 9 28251.161730 1 3
mps 9 27736.064822 1 1
mps 9 27135.088303 1 14
mps 9 17437.053859 1 28
mps 10 32761.282895 0
mps 10 32725.851521 1 31
mps 10 32552.322435 1 11
mps 10 32502.668286 1 0
mps 10 32395.275488 1 23
mps 10 32265.240790 1 29
mps 10 31936.411164 1 4
mps 10 30567.956851 1 13
mps 10 29807.237710 1 1
mps 10 29693.476132 1 2
mps 10 29030.423036 1 3
mps 10 29012.578031 2 3 29
mps 10 28940.207886 2 2 13
mps 10 28799.667494 2 3 13
mps 10 28657.939889 1 8
mps 10 28597.041982 2 3 8
mps 10 28169.901562 2 2 3
mps 10 26829.025786 1 6
mps 10 24558.696000 2 1 12
mps 10 24425.267793 2 2 6
mps 10 24135.270032 2 3 6
mps 10 24042.427028 2 6 8
mps 10 23828.316475 2 3 12
mps 10 22849.189418 2 2 12
mps 10 20182.160814 2 8 12
mps 10 17917.247916 3 2 3 12
mps 10 12624.509946 2 6 13
mps 11 31051.908002 0
mps 11 30985.741826 1 3
mps 11 30976.830524 1 8
mps 11 30949.284106 1 2
mps 11 30842.947542 1 10
mps 11 21815.444910 1 0
mps 12 29919.184404 0
mps 12 29916.302264 1 7
mps 12 29874.404434 1 35
mps 12 29867.146179 1 33
mps 12 29864.231768 1 34
mps 12 29801.265916 1 37
mps 12 29771.761690 1 4
mps 12 29766.192422 1 38
mps 12 29672.744540 1 41
mps 12 29637.427766 1 6
mps 12 29586.193718 1 31
mps 12 29485.062300 1 13
mps 12 29472.921046 1 40
mps 12 29423.706942 1 32
mps 12 29368.745891 1 44
mps 12 29357.563221 1 23
mps 12 29116.819405 1 47
mps 12 28883.724670 1 30
mps 12 26858.942747 1 3
mps 12 26856.929606 1 1
mps 12 26670.331829 2 3 6
mps 12 26522.264525 1 2
mps 12 26518.548430 2 2 32
mps 12 26483.575967 2 2 44
mps 12 26429.245124 2 2 6
mps 12 26325.942909 2 2 23
mps 12 26295.882429 2 2 30
mps 12 26264.594329 1 29
mps 12 26195.903017 2 2 13
mps 12 25985.455054 1 8
mps 12 25862.570518 2 2 8
mps 12 25858.011929 2 3 8
mps 12 25709.730703 2 6 8
mps 12 25646.029869 2 3 29
mps 12 25348.571114 2 2 3
mps 12 25162.683804 2 8 29
mps 12 24663.106254 2 2 29
mps 12 21656.836185 2 3 10
mps 12 21608.387896 2 1 10
mps 12 19677.977812 2 2 10
mps 12 17509.675979 2 8 10
mps 12 17162.320849 3 2 8 10
mps 12 15095.917467 3 2 3 10
mps 13 32828.297934 0
mps 13 32821.887484 1 33
mps 13 32786.069896 1 34
mps 13 32772.140761 1 35
mps 13 32766.996145 1 22
mps 13 32748.624970 1 37
mps 13 32736.381054 1 38
mps 13 32653.593855 1 41
mps 13 32590.831792 1 20
mps 13 32549.897966 1 15
mps 13 32423.871124 1 44
mps 13 32418.426568 1 40
mps 13 32394.175830 1 12
mps 13 32369.514082 1 1
mps 13 32363.183613 1 32
mps 13 32272.853717 1 31
mps 13 32272.262380 1 47
mps 13 32152.464771 1 30
mps 13 31935.105794 1 2
mps 13 31653.712570 1 3
mps 13 31608.744286 2 2 12
mps 13 31594.644205 1 23
mps 13 31569.684181 1 8
mps 13 31545.204061 1 4
mps 13 31418.807583 2 8 23
mps 13 31175.339085 2 3 23
mps 13 31156.806038 2 2 23
mps 13 30634.971890 1 10
mps 13 30432.738387 2 10 23
mps 13 29910.273680 1 29
mps 13 20790.841466 1 6
mps 13 18601.087061 2 2 6
mps 13 18594.666887 2 3 6
mps 13 18287.011250 2 6 8
mps 13 6586.325626 2 6 10
mps 14 28638.566337 0
mps 14 28185.176397 1 27
mps 14 27936.987244 1 4
mps 14 27055.718717 1 9
mps 14 18591.490415 1 28
mps 15 33290.928234 0
mps 15 33270.840418 1 6
mps 15 33123.404014 1 17
mps 15 33012.528266 1 13
mps 15 32708.596100 1 21
mps 15 30931.411106 1 19
mps 15 29376.295095 1 16
mps 15 21223.833145 1 22
mps 15 19823.897945 2 19 22
mps 15 17868.585234 2 21 22
mps 15 17742.341461 2 16 22
mps 15 14566.843283 1 20
mps 15 8262.167186 2 19 20
mps 15 3164.177796 2 16 20
mps 16 38321.537346 0
mps 16 35111.502082 1 17
mps 16 34406.904207 1 15
mps 16 27250.446312 2 15 20
mps 16 19768.159365 1 19
mps 16 6746.716592 2 17 19
mps 17 26420.385712 0
mps 17 26252.861491 1 15
mps 17 26060.184837 1 31
mps 17 25200.064921 1 18
mps 17 23210.350447 1 16
mps 17 13799.600876 2 16 19
mps 18 28863.433069 0
mps 18 28850.966318 1 3
mps 18 28846.828886 1 25
mps 18 28816.075164 1 8
mps 18 28752.776139 1 2
mps 18 27649.705345 1 29
mps 18 27643.112279 1 17
mps 18 23867.615789 1 31
mps 19 38085.997686 0
mps 19 35726.480557 1 15
mps 19 32069.922288 2 15 20
mps 19 19532.619705 1 16
mps 19 10121.870133 2 16 17
mps 20 32250.466980 0
mps 20 32013.000838 1 13
mps 20 30041.492560 1 21
mps 20 16666.655939 1 22
mps 20 13526.382029 1 15
mps 20 12516.671231 2 15 22
mps 20 9869.823759 2 15 19
mps 20 6369.924134 2 15 16
mps 20 3735.024232 2 21 22
mps 21 38091.266328 0
mps 21 37508.934193 1 15
mps 21 35882.291908 1 20
mps 21 35171.185980 2 15 22
mps 21 25594.802185 2 20 22
mps 22 39921.808814 0
mps 22 39860.507025 1 13
mps 22 27854.713725 1 15
mps 22 25516.965512 2 15 21
mps 22 24337.997773 1 20
mps 22 14050.508050 2 20 21
mps 23 34502.516100 0
mps 23 34472.341798 1 7
mps 23 34448.105300 1 29
mps 23 34338.027821 1 36
mps 23 34136.508693 1 10
mps 23 34092.396985 1 25
mps 23 33940.894917 1 12
mps 23 33821.379916 1 37
mps 23 33812.458149 1 30
mps 23 33767.601857 1 42
mps 23 33645.765250 1 26
mps 23 33633.814082 1 44
mps 23 33505.346123 1 47
mps 23 33499.642810 2 26 30
mps 23 33435.250878 2 26 37
mps 23 33408.622801 1 38
mps 23 33331.624082 2 26 47
mps 23 33288.112927 2 26 42
mps 23 33268.862371 1 13
mps 23 33250.623732 2 13 26
mps 23 33213.820667 2 26 44
mps 23 33085.460190 1 35
mps 23 32888.369754 2 26 38
mps 23 32839.327608 1 24
mps 23 32628.125324 1 33
mps 23 32564.108021 2 26 33
mps 23 32523.747564 1 34
mps 23 32460.851239 2 26 34
mps 23 32447.366489 2 24 33
mps 23 32399.381359 2 26 35
mps 23 31778.501772 2 24 34
mps 23 31530.744151 1 6
mps 23 29928.328523 1 41
mps 23 29915.085625 2 24 41
mps 23 29658.846396 2 26 41
mps 23 29050.360636 2 37 41
mps 23 26180.143438 1 32
mps 23 25642.202845 2 26 32
mps 23 24121.736599 1 40
mps 23 23751.422363 2 26 40
mps 23 18817.342253 2 24 32
mps 23 13820.520198 2 24 40
mps 24 27266.368568 0
mps 24 27060.323780 1 7
mps 24 27028.817850 1 25
mps 24 26940.127758 1 26
mps 24 26853.379721 2 25 26
mps 24 26751.891539 1 43
mps 24 26642.745696 1 30
mps 24 26550.271301 1 42
mps 24 26525.018314 2 26 42
mps 24 26277.077294 1 47
mps 24 26069.775319 1 44
mps 24 25603.180076 1 23
mps 24 25258.185920 1 37
mps 24 25198.905701 2 23 37
mps 24 24814.961659 1 36
mps 24 24772.038354 2 26 36
mps 24 23590.992516 1 41
mps 24 23577.749618 2 23 41
mps 24 23398.752884 2 37 41
mps 24 21602.630304 1 32
mps 24 21207.345540 2 26 32
mps 24 20794.198047 1 40
mps 24 20217.826212 2 26 40
mps 24 17726.114066 1 34
mps 24 16980.868274 2 23 34
mps 24 16788.168289 1 33
mps 24 16607.409453 2 23 33
mps 24 15736.503349 2 26 34
mps 24 14239.829119 2 23 32
mps 24 14022.865734 2 26 33
mps 24 10492.981646 2 23 40
mps 25 26747.083533 0
mps 25 26730.479350 1 18
mps 25 26729.892904 1 6
mps 25 26725.047598 1 29
mps 25 26509.532814 1 24
mps 25 26336.964418 1 23
mps 25 25914.724055 1 31
mps 26 19028.980334 0
mps 26 18934.202287 1 6
mps 26 18702.739524 1 24
mps 26 18555.330777 2 24 40
mps 26 18172.229484 1 23
mps 26 17144.059809 2 24 34
mps 26 16370.012948 2 24 33
mps 27 27385.146642 0
mps 27 26975.330976 1 9
mps 27 26931.756702 1 14
mps 27 26802.674784 1 7
mps 27 18863.831400 1 28
mps 28 73177.391003 0
mps 28 64656.075762 1 27
mps 28 63130.315081 1 14
mps 28 61896.508939 1 9
mps 29 26802.905878 0
mps 29 26780.869944 1 25
mps 29 26748.495078 1 23
mps 29 26745.415776 1 35
mps 29 26689.651020 1 41
mps 29 26679.386188 1 34
mps 29 26677.333908 1 33
mps 29 26619.551965 1 0
mps 29 26578.168058 1 38
mps 29 26559.058707 1 37
mps 29 26424.257826 1 40
mps 29 26417.238019 1 32
mps 29 26306.863773 1 10
mps 29 26014.386861 1 4
mps 29 25934.738542 1 7
mps 29 25770.544890 1 44
mps 29 25589.178154 1 18
mps 29 25550.894356 2 18 44
mps 29 25042.468632 1 47
mps 29 25024.146498 1 1
mps 29 24963.838738 1 6
mps 29 24772.491683 1 2
mps 29 24461.300704 1 30
mps 29 24432.627051 1 3
mps 29 24414.782046 2 3 10
mps 29 24300.496086 2 3 7
mps 29 24280.051747 2 2 7
mps 29 24266.630352 2 18 30
mps 29 24199.779856 2 2 44
mps 29 24190.458905 2 2 18
mps 29 24068.970095 2 3 44
mps 29 23999.565098 2 3 18
mps 29 23978.998004 1 8
mps 29 23952.194519 2 7 8
mps 29 23949.070260 2 2 3
mps 29 23884.881624 1 13
mps 29 23821.770339 2 8 18
mps 29 23788.961380 2 8 44
mps 29 23786.162432 2 3 47
mps 29 23779.231541 2 2 47
mps 29 23698.497586 2 13 30
mps 29 23595.074572 2 8 47
mps 29 23193.966794 2 3 13
mps 29 23193.532487 2 2 6
mps 29 23177.575637 2 2 30
mps 29 23172.119884 2 3 30
mps 29 23150.988456 2 3 6
mps 29 23148.315803 1 12
mps 29 23128.041668 2 2 13
mps 29 23103.377014 2 8 13
mps 29 22950.052535 2 8 30
mps 29 22935.033487 1 31
mps 29 22913.333411 2 2 12
mps 29 22866.253950 2 6 8
mps 29 22522.054062 2 6 31
mps 29 22257.983607 2 31 44
mps 29 21636.096145 2 2 31
mps 29 21620.755600 2 13 31
mps 29 21617.966899 2 12 13
mps 29 21553.785764 2 31 47
mps 29 21395.610975 2 3 31
mps 29 21199.319304 2 8 31
mps 29 20496.474792 2 12 31
mps 29 20471.558461 2 30 31
mps 30 32674.464059 0
mps 30 32583.366101 1 7
mps 30 32433.330955 1 36
mps 30 32365.042229 1 2
mps 30 32244.231324 1 3
mps 30 32233.198348 1 8
mps 30 32109.981047 1 35
mps 30 32050.841186 1 24
mps 30 31998.630896 1 13
mps 30 31994.475493 1 6
mps 30 31984.406108 1 23
mps 30 31639.004324 1 12
mps 30 31600.622171 1 41
mps 30 31536.504915 1 33
mps 30 31521.666225 1 34
mps 30 31395.722811 1 37
mps 30 31224.929320 1 38
mps 30 31188.212318 2 37 38
mps 30 31019.460011 2 41 42
mps 30 30886.071382 2 37 43
mps 30 30568.932777 1 40
mps 30 30565.844531 1 32
mps 30 30332.858885 1 29
mps 30 30325.695266 2 29 40
mps 30 30201.460043 2 29 38
mps 30 30153.679254 2 29 32
mps 30 28030.761025 1 44
mps 30 27819.737396 2 29 44
mps 30 19939.375704 1 47
mps 31 27889.531419 0
mps 31 27854.100045 1 10
mps 31 27823.404219 1 7
mps 31 27789.265592 1 4
mps 31 27761.353002 1 1
mps 31 27633.817881 1 6
mps 31 27556.540732 1 12
mps 31 27529.330544 1 17
mps 31 27506.096661 1 3
mps 31 27448.084291 1 2
mps 31 27390.119694 1 8
mps 31 27334.087202 1 13
mps 31 27057.171941 1 25
mps 31 26918.623706 2 2 25
mps 31 24021.659028 1 29
mps 31 22893.714138 1 18
mps 31 21319.112914 2 18 29
mps 32 30013.006598 0
mps 32 29627.338740 1 29
mps 32 29547.892277 1 13
mps 32 29517.529135 1 12
mps 32 29322.005978 1 35
mps 32 29088.706944 1 7
mps 32 29088.466495 1 43
mps 32 28973.065562 1 6
mps 32 28941.283169 1 38
mps 32 28005.704150 1 42
mps 32 27904.387070 1 30
mps 32 27737.123375 1 36
mps 32 27684.065497 2 30 36
mps 32 26914.831174 1 44
mps 32 26856.484626 1 47
mps 32 26852.492844 2 36 38
mps 32 26443.743985 2 36 42
mps 32 26356.789178 1 37
mps 32 26277.202574 2 30 42
mps 32 25163.688488 2 42 47
mps 32 24717.139841 2 42 44
mps 32 24349.268334 1 24
mps 32 24155.677975 2 24 35
mps 32 23790.322477 2 37 42
mps 32 21690.633936 1 23
mps 32 20854.337529 2 23 37
mps 32 19511.067825 1 41
mps 32 19344.913738 1 33
mps 32 18980.490218 2 33 38
mps 32 18769.908891 2 23 41
mps 32 18749.052562 1 34
mps 32 18162.695057 2 33 41
mps 32 18144.853232 2 34 41
mps 32 18100.110188 2 34 38
mps 32 18005.477642 2 41 43
mps 32 17441.871852 2 41 44
mps 32 17303.000825 2 36 41
mps 32 16404.018441 2 33 35
mps 32 14375.467448 2 34 35
mps 32 14109.092003 2 23 33
mps 32 14062.087536 2 23 34
mps 32 10754.126382 2 37 41
mps 32 10327.282979 2 23 24
mps 32 3477.899386 1 40
mps 33 28458.365436 0
mps 33 28451.954986 1 13
mps 33 28406.327210 1 12
mps 33 28332.793466 1 29
mps 33 28255.216046 1 6
mps 33 27979.715495 1 7
mps 33 27320.406292 1 30
mps 33 27306.082327 1 43
mps 33 27125.079997 1 42
mps 33 26994.146934 2 30 42
mps 33 26645.246218 1 47
mps 33 26610.703232 2 42 47
mps 33 26583.974660 1 23
mps 33 26362.911159 1 44
mps 33 25616.710956 2 42 44
mps 33 24937.539997 1 37
mps 33 23740.340668 2 37 42
mps 33 23128.321588 1 36
mps 33 22091.635859 1 41
mps 33 18909.311263 2 37 41
mps 33 18136.575660 2 36 41
mps 33 17980.165156 1 24
mps 33 17790.272575 1 32
mps 33 17663.649939 2 32 36
mps 33 17588.204037 2 23 24
mps 33 17106.268382 2 24 32
mps 33 15754.576209 1 40
mps 33 15653.520607 2 32 35
mps 33 15647.438580 2 24 26
mps 33 12424.247662 2 35 40
mps 33 5240.472619 1 34
mps 33 4971.709321 2 34 36
mps 34 29754.905942 0
mps 34 29712.677904 1 13
mps 34 29699.953305 1 12
mps 34 29631.386252 1 29
mps 34 29490.276182 1 6
mps 34 29257.697749 1 7
mps 34 28872.303902 1 43
mps 34 28611.830390 1 42
mps 34 28602.108108 1 30
mps 34 28483.886518 2 30 42
mps 34 27920.440613 1 47
mps 34 27776.137406 1 23
mps 34 27702.638481 1 44
mps 34 27170.362585 2 42 44
mps 34 27051.587096 1 36
mps 34 26881.939913 2 36 42
mps 34 26878.136320 1 37
mps 34 26075.034107 2 37 42
mps 34 22809.433873 1 41
mps 34 21679.860253 2 36 41
mps 34 20214.651439 1 24
mps 34 20131.805524 2 37 41
mps 34 19153.825604 2 23 24
mps 34 18655.971724 2 24 26
mps 34 18490.951905 1 32
mps 34 16194.831167 1 40
mps 34 14821.043903 2 32 35
mps 34 10713.917339 2 35 40
mps 34 6537.013125 1 33
mps 35 19499.332632 0
mps 35 19491.896898 1 37
mps 35 19490.290056 1 36
mps 35 19454.552661 1 12
mps 35 19443.175459 1 13
mps 35 19441.842529 1 29
mps 35 19384.051656 1 42
mps 35 19329.193634 1 41
mps 35 19271.462330 1 6
mps 35 19237.561682 1 40
mps 35 19220.240005 2 36 37
mps 35 19117.845142 1 44
mps 35 18934.849620 1 30
mps 35 18808.332012 1 32
mps 35 18082.276722 1 23
mps 35 17910.130201 1 47
mps 35 16671.580043 2 32 33
mps 35 15907.233135 2 33 40
mps 35 15138.424009 2 32 34
mps 35 13819.211674 1 38
mps 35 13756.647855 2 34 40
mps 36 30297.433572 0
mps 36 30288.390996 1 35
mps 36 30205.200503 1 45
mps 36 30175.199647 1 41
mps 36 30132.945292 1 23
mps 36 30056.300468 1 30
mps 36 29855.239283 1 38
mps 36 29696.186436 1 47
mps 36 29169.751699 1 42
mps 36 28738.242386 1 44
mps 36 28692.733061 2 38 44
mps 36 28575.145936 2 38 42
mps 36 28021.550348 1 32
mps 36 28012.085407 2 42 44
mps 36 27967.132647 2 32 41
mps 36 27846.026663 1 24
mps 36 27766.448959 2 32 38
mps 36 27660.887727 1 40
mps 36 27607.791535 2 32 42
mps 36 27594.114726 1 34
mps 36 27571.693656 2 38 40
mps 36 27439.861222 2 34 42
mps 36 27260.978795 2 40 42
mps 36 26767.086695 2 40 41
mps 36 24967.389723 1 33
mps 36 24776.265942 1 43
mps 36 24774.342084 2 33 43
mps 36 24055.341517 2 42 43
mps 36 22623.224370 2 43 44
mps 36 20395.239789 1 37
mps 36 20368.926403 2 37 47
mps 36 20123.582895 2 35 37
mps 36 16837.162048 2 37 38
mps 36 16094.159915 2 37 42
mps 36 8674.418594 3 37 38 42
mps 37 27901.644318 0
mps 37 27894.208585 1 35
mps 37 27857.147606 1 41
mps 37 27821.971354 1 13
mps 37 27783.725829 1 12
mps 37 27724.246894 1 6
mps 37 27721.267545 1 45
mps 37 27720.333571 1 7
mps 37 27702.654114 1 38
mps 37 27657.797148 1 29
mps 37 27220.508134 1 23
mps 37 26979.179720 2 23 41
mps 37 26622.903071 1 30
mps 37 26269.260621 1 47
mps 37 25893.461670 1 24
mps 37 25024.874697 1 34
mps 37 24380.818880 1 33
mps 37 24245.426899 1 32
mps 37 23813.802413 2 32 42
mps 37 23754.724393 1 44
mps 37 23566.006098 1 40
mps 37 23365.028418 2 33 44
mps 37 23347.478040 2 32 44
mps 37 23101.576608 2 40 42
mps 37 22986.763398 2 40 44
mps 37 20427.311096 1 43
mps 37 20280.067350 2 43 45
mps 37 19187.648001 2 32 43
mps 37 19100.206164 2 32 41
mps 37 18896.040142 2 40 43
mps 37 18282.718628 2 30 43
mps 37 17999.450535 1 36
mps 37 17729.400484 2 35 36
mps 37 17724.774945 2 30 36
mps 37 17201.915001 2 43 47
mps 37 16942.000589 2 36 47
mps 37 16304.173073 2 36 44
mps 37 15322.077563 2 40 41
mps 37 14953.592301 2 36 42
mps 37 14684.576879 2 36 38
mps 37 8515.617223 3 36 38 42
mps 37 2285.945330 2 43 44
mps 38 20176.136511 0
mps 38 20084.219631 1 13
mps 38 20023.144528 1 12
mps 38 19977.146306 1 37
mps 38 19951.398690 1 29
mps 38 19948.830258 1 6
mps 38 19826.733013 1 42
mps 38 19733.942222 1 36
mps 38 19604.411120 1 41
mps 38 19386.186477 1 40
mps 38 19296.992406 2 36 40
mps 38 19232.127250 2 36 42
mps 38 19160.140642 1 44
mps 38 19114.631318 2 36 44
mps 38 19104.413081 1 32
mps 38 19082.243211 1 23
mps 38 18849.311692 2 32 36
mps 38 18726.601772 1 30
mps 38 16419.068565 2 36 37
mps 38 16120.857626 1 47
mps 38 14496.015553 1 35
mps 38 13598.288578 2 35 47
mps 38 12794.152172 3 36 37 42
mps 39 47.000270 0
mps 40 36717.733653 0
mps 40 36455.962704 1 35
mps 40 36339.085602 1 29
mps 40 36307.862288 1 13
mps 40 36271.470295 1 12
mps 40 35927.783620 1 38
mps 40 35881.847378 1 7
mps 40 35764.329424 1 6
mps 40 35576.670654 1 43
mps 40 34664.044974 1 42
mps 40 34657.977644 2 42 43
mps 40 34612.202372 1 30
mps 40 34081.187809 1 36
mps 40 33644.237993 2 36 38
mps 40 33533.075768 1 47
mps 40 33454.091687 1 44
mps 40 33278.253400 2 43 44
mps 40 33040.126450 2 30 42
mps 40 32755.272070 2 36 42
mps 40 32382.095433 1 37
mps 40 31919.639293 2 42 47
mps 40 31279.085272 2 42 44
mps 40 30245.563132 1 24
mps 40 30098.154385 2 24 26
mps 40 29736.437497 2 37 42
mps 40 26336.954152 1 23
mps 40 25672.129483 1 41
mps 40 25203.537637 2 23 37
mps 40 24013.944427 1 33
mps 40 23555.429699 2 33 38
mps 40 23496.962288 2 23 41
mps 40 23415.108609 2 41 43
mps 40 23157.658879 1 34
mps 40 22900.081900 2 33 41
mps 40 22773.064764 2 34 41
mps 40 22670.827239 2 41 44
mps 40 22390.850732 2 34 38
mps 40 22264.016532 2 36 41
mps 40 20308.702221 2 33 35
mps 40 17402.297611 2 34 35
mps 40 17161.090161 2 23 33
mps 40 17042.279139 2 23 34
mps 40 13137.059440 2 37 41
mps 40 11226.755722 2 23 24
mps 40 10182.626441 1 32
mps 40 9754.193037 2 32 34
mps 40 9152.228727 2 32 33
mps 41 34412.027448 0
mps 41 34367.530736 1 37
mps 41 34298.772590 1 29
mps 41 34289.793523 1 36
mps 41 34241.888450 1 35
mps 41 34237.323369 1 13
mps 41 34165.587583 1 12
mps 41 33946.082392 1 7
mps 41 33840.302057 1 38
mps 41 33818.582779 1 6
mps 41 33479.657239 1 44
mps 41 33338.185560 1 30
mps 41 32492.262566 1 47
mps 41 30736.651396 1 24
mps 41 29989.573403 1 42
mps 41 29837.839870 1 23
mps 41 29596.511456 2 23 37
mps 41 28660.224657 2 24 42
mps 41 28494.761241 2 42 44
mps 41 28198.356771 2 30 42
mps 41 28045.297871 1 33
mps 41 27814.136396 2 23 42
mps 41 27812.409412 2 23 24
mps 41 27466.555378 1 34
mps 41 26701.691323 2 42 47
mps 41 26396.447172 2 33 42
mps 41 25780.734126 2 34 42
mps 41 23910.088674 1 32
mps 41 23855.670973 2 32 36
mps 41 23745.555227 2 32 43
mps 41 23366.423277 1 40
mps 41 22696.392791 2 40 44
mps 41 22666.982036 2 40 43
mps 41 22472.622246 2 36 40
mps 41 22456.161387 2 32 42
mps 41 22093.779618 2 40 42
mps 41 18764.867939 2 32 37
mps 41 15122.494743 2 37 40
mps 42 27886.205293 0
mps 42 27885.077960 1 7
mps 42 27770.924317 1 35
mps 42 27536.801795 1 38
mps 42 27170.108025 1 24
mps 42 27151.291050 1 23
mps 42 26758.523421 1 36
mps 42 26743.129741 1 34
mps 42 26588.876237 2 34 36
mps 42 26552.919854 1 33
mps 42 26256.708449 2 36 38
mps 42 25878.902844 1 32
mps 42 25832.516614 1 40
mps 42 25811.363736 2 32 44
mps 42 25465.144031 2 32 36
mps 42 25447.278359 2 32 37
mps 42 25432.607682 2 36 40
mps 42 25368.087124 2 37 40
mps 42 23712.665187 2 36 37
mps 42 23463.751248 1 41
mps 42 23024.159071 2 41 44
mps 42 22882.589088 2 30 41
mps 42 22298.993656 2 41 47
mps 42 20087.748793 3 36 37 38
mps 43 41577.685094 0
mps 43 41063.208065 1 24
mps 43 40695.083054 1 34
mps 43 40653.144991 1 32
mps 43 40488.611544 2 32 41
mps 43 40436.622095 1 40
mps 43 40425.401985 1 33
mps 43 39737.180853 2 40 41
mps 43 36056.517464 1 36
mps 43 35763.474860 2 36 44
mps 43 34103.351872 1 37
mps 43 33593.700442 2 30 37
mps 43 32993.509767 2 37 47
mps 43 20409.713812 2 37 44
mps 44 22649.536418 0
mps 44 22558.825960 1 2
mps 44 22534.987792 1 8
mps 44 22515.163207 1 3
mps 44 22441.650820 1 7
mps 44 22268.048928 1 35
mps 44 22245.109608 1 13
mps 44 22140.615105 1 6
mps 44 22099.097904 1 12
mps 44 21840.692199 1 45
mps 44 21819.960607 2 6 45
mps 44 21780.834400 1 23
mps 44 21760.726627 2 35 45
mps 44 21717.166209 1 41
mps 44 21652.891348 2 12 45
mps 44 21633.540549 1 38
mps 44 21617.175429 1 29
mps 44 21524.909867 2 23 45
mps 44 21452.943169 1 24
mps 44 21286.357468 2 41 45
mps 44 21277.574032 2 41 42
mps 44 21219.637180 2 24 45
mps 44 21090.345232 1 36
mps 44 21087.968520 2 38 45
mps 44 21065.078200 2 29 45
mps 44 20888.470320 2 36 45
mps 44 20797.302628 2 36 43
mps 44 20597.268957 1 34
mps 44 20554.082141 1 33
mps 44 20471.034327 2 36 38
mps 44 20393.318859 2 34 45
mps 44 20359.507556 2 33 45
mps 44 19551.360993 1 32
mps 44 19483.821885 2 32 42
mps 44 19385.894452 1 40
mps 44 19198.700512 2 32 45
mps 44 19091.295475 2 40 45
mps 44 18715.863965 2 40 41
mps 44 18502.616492 1 37
mps 44 18258.645250 2 37 45
mps 44 18005.833384 1 30
mps 44 17269.920077 2 30 45
mps 44 16283.388038 2 30 37
mps 44 15960.458677 1 47
mps 44 15151.903135 2 45 47
mps 44 14991.432241 2 37 47
mps 44 4808.978433 2 37 43
mps 45 19032.506032 0
mps 45 18940.272963 1 36
mps 45 18852.129258 1 37
mps 45 18223.661813 1 44
mps 46 27887.172732 0
mps 47 38090.133631 0
mps 47 37954.642750 1 7
mps 47 37912.905678 1 2
mps 47 37833.445230 1 8
mps 47 37821.380168 1 3
mps 47 37534.098077 1 13
mps 47 37488.886496 1 36
mps 47 37469.898320 1 6
mps 47 37287.768632 1 12
mps 47 37100.842357 1 24
mps 47 37092.963654 1 23
mps 47 36500.931201 1 35
mps 47 36457.749935 1 37
mps 47 36431.436549 2 36 37
mps 47 36329.696386 1 29
mps 47 36311.656393 2 29 37
mps 47 36287.934580 2 35 37
mps 47 36277.014414 1 33
mps 47 36255.668302 1 34
mps 47 36218.959940 2 29 35
mps 47 36170.368750 1 41
mps 47 35347.907830 2 37 43
mps 47 35005.611158 2 41 42
mps 47 34933.611660 1 32
mps 47 34905.475746 1 40
mps 47 34034.854747 1 38
mps 47 34034.104865 2 37 38
mps 47 33940.621212 2 29 38
mps 47 33734.556758 2 38 40
mps 47 33639.379113 2 32 38
mps 47 31401.055891 1 44
mps 47 29814.156619 2 38 44
mps 47 25355.045276 1 30
mps 47 25048.030813 2 30 44
mps 47 24492.843128 2 30 38
MPSList_Ends