MPSList_Begins
mps 0 10265.229926 0
mps 0 10251.948929 1 8
mps 0 10158.103226 1 1
mps 0 10144.006962 1 4
mps 0 10113.208815 1 3
mps 0 10112.460491 1 9
mps 0 10103.414668 2 3 9
mps 0 10085.829848 2 1 9
mps 0 10080.598556 1 7
mps 0 10065.656630 2 1 3
mps 0 10055.240201 2 7 9
mps 0 10036.576074 2 1 7
mps 0 10031.425467 1 6
mps 0 10026.446044 1 10
mps 0 10007.693042 2 1 10
mps 0 10002.755703 1 2
mps 0 9999.655697 2 6 7
mps 0 9990.035633 2 6 9
mps 0 9986.975304 2 1 6
mps 0 9958.637697 2 2 9
mps 0 9951.125844 2 1 2
mps 0 9927.946344 2 2 10
mps 0 9900.822045 1 11
mps 0 9874.477055 2 2 6
mps 0 9699.454057 1 5
mps 0 9450.472175 1 28
mps 0 9406.152609 2 3 28
mps 0 9406.091094 2 9 28
mps 0 9387.709968 2 5 28
mps 0 9372.927003 2 1 28
mps 0 9346.011425 2 10 28
mps 0 9339.036825 2 6 28
mps 0 9329.235808 2 7 28
mps 0 9320.419116 2 2 28
mps 0 9303.190946 2 11 28
mps 0 8924.343905 1 19
mps 0 8873.555258 2 2 19
mps 0 8656.419566 2 19 28
mps 0 8219.517875 1 24
mps 0 7505.993397 1 29
mps 0 7505.993397 1 15
mps 1 4000.138004 0
mps 1 3998.051218 1 8
mps 1 3987.854024 1 6
mps 1 3953.425234 1 9
mps 1 3950.167428 1 10
mps 1 3945.199167 1 11
mps 1 3941.140711 1 4
mps 1 3931.992246 2 4 9
mps 1 3930.399868 2 4 10
mps 1 3899.779661 1 7
mps 1 3897.926227 2 6 7
mps 1 3893.011304 1 0
mps 1 3884.706605 2 7 9
mps 1 3855.757179 2 0 7
mps 1 3847.404900 2 7 10
mps 1 3835.344228 1 24
mps 1 3829.455833 2 4 24
mps 1 3812.867279 2 7 24
mps 1 3800.555469 1 2
mps 1 3781.391006 2 2 10
mps 1 3777.470741 2 2 7
mps 1 3773.631104 2 2 9
mps 1 3770.157695 2 2 28
mps 1 3748.925610 2 0 2
mps 1 3691.544135 1 19
mps 1 3683.716777 2 7 19
mps 1 3669.665597 2 3 19
mps 1 3644.927507 2 6 19
mps 1 3628.101869 2 2 19
mps 1 3591.621556 2 10 19
mps 1 3566.469278 2 8 19
mps 1 3561.378452 2 2 24
mps 1 3559.078516 2 9 19
mps 1 3328.876969 2 19 24
mps 1 3204.143764 1 29
mps 1 3204.143764 1 15
mps 2 7973.938019 0
mps 2 7887.073020 1 11
mps 2 7848.291029 1 5
mps 2 7835.438061 1 28
mps 2 7833.865238 2 6 28
mps 2 7827.563802 2 3 28
mps 2 7814.685070 2 11 28
mps 2 7774.355485 1 1
mps 2 7767.160647 1 7
mps 2 7754.388592 2 1 11
mps 2 7711.463797 1 0
mps 2 7711.371365 2 1 5
mps 2 7711.279277 2 0 7
mps 2 7705.385002 2 0 28
mps 2 7691.988195 1 4
mps 2 7644.851726 2 1 7
mps 2 7604.611961 2 1 28
mps 2 7584.754923 2 1 4
mps 2 7567.378103 2 0 1
mps 2 7564.739465 2 4 28
mps 2 7554.769474 2 7 28
mps 2 7471.466356 3 1 4 28
mps 2 7428.079041 3 1 7 28
mps 2 7382.218873 1 24
mps 2 7378.206425 2 4 24
mps 2 7342.674150 2 7 24
mps 2 7335.080159 1 19
mps 2 7299.196992 2 8 19
mps 2 7284.291512 2 0 19
mps 2 7271.637893 2 1 19
mps 2 7231.174046 2 9 19
mps 2 7108.253097 2 1 24
mps 2 7066.874562 2 19 28
mps 2 6589.388465 2 19 24
mps 2 5844.041092 1 29
mps 2 5844.041092 1 15
mps 3 7542.244521 0
mps 3 7538.814693 1 4
mps 3 7476.474695 1 7
mps 3 7461.990383 1 11
mps 3 7452.037721 1 10
mps 3 7390.223411 1 0
mps 3 7363.260873 1 28
mps 3 7355.386614 2 2 28
mps 3 7330.228993 2 10 28
mps 3 7327.967111 2 7 28
mps 3 7318.941308 2 0 28
mps 3 7316.798457 2 11 28
mps 3 7294.777854 1 6
mps 3 7280.261913 1 5
mps 3 7278.880618 2 5 6
mps 3 7238.072929 2 5 28
mps 3 7155.624286 2 6 28
mps 3 6962.144729 1 19
mps 3 6941.878859 2 6 19
mps 3 6940.266191 2 1 19
mps 3 6920.136124 2 10 19
mps 3 6887.207964 2 19 28
mps 3 6826.145660 2 7 19
mps 3 6683.552669 1 24
mps 3 6569.231922 2 19 24
mps 3 6352.182526 2 24 28
mps 3 6042.613020 1 29
mps 3 6042.613020 1 15
mps 4 9095.494698 0
mps 4 9092.064869 1 3
mps 4 9036.497406 1 1
mps 4 9007.859669 1 28
mps 4 8995.364638 1 5
mps 4 8974.271735 1 0
mps 4 8954.248252 2 1 28
mps 4 8917.066761 1 7
mps 4 8870.866048 2 7 28
mps 4 8813.544874 1 2
mps 4 8776.938544 1 24
mps 4 8772.926096 2 2 24
mps 4 8771.050149 2 1 24
mps 4 8737.161072 2 2 28
mps 4 8502.761606 1 19
mps 4 8434.770395 2 19 28
mps 4 8018.152728 1 29
mps 4 8018.152728 1 15
mps 5 11065.670442 0
mps 5 11064.957520 1 8
mps 5 10991.465187 1 9
mps 5 10965.540382 1 4
mps 5 10957.119977 1 10
mps 5 10940.023452 1 2
mps 5 10917.472625 1 11
mps 5 10868.326511 1 6
mps 5 10865.015438 2 2 6
mps 5 10803.687834 1 3
mps 5 10499.894574 1 0
mps 5 10040.524448 1 28
mps 5 9977.762241 2 0 28
mps 5 9961.979588 2 6 28
mps 5 9915.336504 2 3 28
mps 5 9506.901922 1 19
mps 5 9301.464425 1 24
mps 5 9261.610605 2 19 28
mps 5 9117.098837 2 24 28
mps 5 8368.373008 1 29
mps 5 8368.373008 1 15
mps 6 6327.429783 0
mps 6 6315.145803 1 1
mps 6 6264.120890 1 7
mps 6 6262.267456 2 1 7
mps 6 6208.689897 1 9
mps 6 6191.313844 2 7 9
mps 6 6182.397058 1 28
mps 6 6180.824235 2 2 28
mps 6 6178.387676 2 1 28
mps 6 6141.714211 1 11
mps 6 6139.919042 2 7 28
mps 6 6139.739108 1 10
mps 6 6130.085851 1 5
mps 6 6109.721823 2 9 28
mps 6 6106.521325 2 9 10
mps 6 6103.852198 2 5 28
mps 6 6093.625324 1 0
mps 6 6086.265039 2 0 9
mps 6 6084.427843 2 11 28
mps 6 6079.963116 1 3
mps 6 6070.961708 2 0 28
mps 6 6067.212319 2 10 28
mps 6 6065.483549 2 0 3
mps 6 6033.379437 2 3 10
mps 6 6014.032287 2 3 9
mps 6 5974.760471 2 3 28
mps 6 5866.794956 1 19
mps 6 5846.529086 2 3 19
mps 6 5837.712021 2 10 19
mps 6 5820.178329 2 1 19
mps 6 5817.452946 2 9 19
mps 6 5816.168524 2 19 28
mps 6 5731.151919 2 7 19
mps 6 5335.625281 1 24
mps 6 5004.713426 1 29
mps 6 5004.713426 1 15
mps 7 7429.728843 0
mps 7 7427.221885 1 28
mps 7 7425.702973 1 8
mps 7 7412.281622 1 10
mps 7 7410.050136 1 11
mps 7 7366.419950 1 6
mps 7 7363.959017 1 3
mps 7 7329.370501 1 1
mps 7 7309.519094 2 1 10
mps 7 7276.492154 2 1 6
mps 7 7269.817213 2 1 3
mps 7 7251.300906 1 4
mps 7 7245.097473 1 0
mps 7 7236.951647 2 1 4
mps 7 7222.951470 1 2
mps 7 7207.843349 2 0 1
mps 7 7199.866743 2 1 2
mps 7 7146.553297 2 2 28
mps 7 7005.548664 1 19
mps 7 6997.721306 2 1 19
mps 7 6895.834287 2 19 28
mps 7 6869.905627 2 6 19
mps 7 6869.549596 2 3 19
mps 7 6687.388255 1 24
mps 7 6664.911307 2 1 24
mps 7 6647.843532 2 2 24
mps 7 6312.170424 2 19 24
mps 7 5778.857238 1 29
mps 7 5778.857238 1 15
mps 8 6337.939173 0
mps 8 6337.226251 1 5
mps 8 6335.852387 1 1
mps 8 6333.913303 1 7
mps 8 6324.658177 1 0
mps 8 6296.684310 1 10
mps 8 6292.464499 1 11
mps 8 6272.547741 1 28
mps 8 6271.816789 2 1 28
mps 8 6252.087710 2 11 28
mps 8 6251.889387 1 9
mps 8 6244.006551 2 10 28
mps 8 6183.093390 2 9 28
mps 8 6044.219608 1 19
mps 8 6026.075608 2 19 28
mps 8 6008.336441 2 2 19
mps 8 5995.256306 2 9 19
mps 8 5919.144751 2 1 19
mps 8 5719.803318 1 24
mps 8 5433.654147 1 29
mps 8 5433.654147 1 15
mps 9 6068.434288 0
mps 9 6021.721518 1 1
mps 9 5994.229032 1 5
mps 9 5988.869258 2 1 5
mps 9 5982.384502 1 8
mps 9 5959.989029 1 28
mps 9 5953.139804 2 1 8
mps 9 5949.694402 1 6
mps 9 5926.408057 2 1 6
mps 9 5926.357799 2 1 28
mps 9 5915.664853 1 0
mps 9 5915.607948 2 0 28
mps 9 5908.304568 2 0 6
mps 9 5907.400698 1 10
mps 9 5887.313794 2 6 28
mps 9 5874.182915 2 6 10
mps 9 5870.534678 2 8 28
mps 9 5865.945629 2 8 10
mps 9 5863.635961 2 6 8
mps 9 5847.222214 2 10 28
mps 9 5833.920278 3 6 8 28
mps 9 5831.697420 1 11
mps 9 5779.015573 2 11 28
mps 9 5736.293967 1 19
mps 9 5706.317463 2 10 19
mps 9 5687.330665 2 8 19
mps 9 5686.951956 2 6 19
mps 9 5632.387854 2 2 19
mps 9 5603.828348 2 1 19
mps 9 5037.082215 1 24
mps 9 5027.278883 1 29
mps 9 5027.278883 1 15
mps 10 7862.562635 0
mps 10 7845.115414 1 7
mps 10 7821.307772 1 8
mps 10 7812.592059 1 1
mps 10 7809.263654 2 1 8
mps 10 7792.740653 2 1 7
mps 10 7772.355834 1 3
mps 10 7759.942883 2 1 3
mps 10 7754.012170 1 5
mps 10 7703.538911 1 28
mps 10 7701.529045 1 9
mps 10 7697.747501 1 11
mps 10 7697.201304 2 11 28
mps 10 7681.413739 2 3 9
mps 10 7674.997721 2 8 28
mps 10 7674.871960 1 6
mps 10 7672.525712 2 1 6
mps 10 7670.507031 2 3 28
mps 10 7667.953488 2 6 8
mps 10 7661.295677 2 1 28
mps 10 7623.778753 1 0
mps 10 7599.360472 2 6 9
mps 10 7599.078160 2 0 28
mps 10 7590.772095 2 9 28
mps 10 7588.354171 2 6 28
mps 10 7566.198900 1 19
mps 10 7557.025895 2 19 28
mps 10 7537.115965 2 6 19
mps 10 7536.222396 2 9 19
mps 10 7524.190295 2 3 19
mps 10 7466.276321 2 1 19
mps 10 6820.124884 1 24
mps 10 6693.957944 1 29
mps 10 6693.957944 1 15
mps 11 11136.060476 0
mps 11 11116.381769 1 7
mps 11 11090.585802 1 8
mps 11 11081.121639 1 1
mps 11 11055.806338 1 3
mps 11 11049.195477 1 2
mps 11 10987.862659 1 5
mps 11 10971.245342 1 10
mps 11 10960.797920 1 28
mps 11 10954.460313 2 10 28
mps 11 10950.344904 1 6
mps 11 10940.337889 2 8 28
mps 11 10940.044929 2 2 28
mps 11 10918.122013 2 1 28
mps 11 10914.335504 2 3 28
mps 11 10899.323607 1 9
mps 11 10864.435037 2 6 9
mps 11 10862.828705 2 6 28
mps 11 10779.824464 2 9 28
mps 11 10771.652595 1 0
mps 11 10095.524487 1 19
mps 11 9699.996010 1 24
mps 11 9606.356029 2 24 28
mps 11 9116.652698 1 29
mps 11 9116.652698 1 15
mps 12 6205.883153 0
mps 12 6200.309857 1 28
mps 12 6198.320522 1 21
mps 12 6175.410724 1 16
mps 12 6165.662576 1 37
mps 12 6163.045091 1 20
mps 12 5965.815788 1 39
mps 12 5955.025034 1 36
mps 12 5948.019941 2 36 39
mps 12 5861.254923 1 42
mps 12 5849.858143 2 39 42
mps 12 5832.871068 2 36 42
mps 12 5644.591130 1 41
mps 12 4628.736727 1 14
mps 12 4604.973310 2 14 37
mps 12 4362.982596 2 14 36
mps 12 4357.139201 2 14 39
mps 12 4201.611980 2 14 42
mps 12 4159.791988 1 13
mps 12 4134.988920 2 13 37
mps 12 3854.399876 2 13 36
mps 12 3853.892660 2 13 39
mps 12 3829.116981 2 14 41
mps 12 3654.502651 2 13 42
mps 12 3442.608671 1 31
mps 12 3418.329697 2 16 31
mps 12 3394.072950 2 20 31
mps 12 3171.373165 2 13 41
mps 12 1000.238037 2 14 31
mps 12 107.692059 2 13 31
mps 13 5508.294825 0
mps 13 5490.657165 1 18
mps 13 5487.590638 1 32
mps 13 5487.358257 1 17
mps 13 5486.040494 1 29
mps 13 5486.040494 1 15
mps 13 5476.392101 1 21
mps 13 5473.474666 1 28
mps 13 5468.887886 2 28 32
mps 13 5459.444993 1 24
mps 13 5436.277285 2 21 28
mps 13 5363.176493 1 20
mps 13 5335.305905 1 16
mps 13 5322.049120 2 16 28
mps 13 5318.453255 2 20 28
mps 13 5240.305337 2 16 20
mps 13 3462.203661 1 12
mps 13 3430.114370 2 12 20
mps 13 3428.245641 2 12 36
mps 13 3419.762161 2 12 16
mps 13 3417.554244 2 12 39
mps 13 3323.728945 2 12 42
mps 13 3057.311504 2 12 41
mps 13 2195.628108 2 12 31
mps 13 1612.215242 1 14
mps 13 1208.083363 2 12 14
mps 13 995.217834 3 12 14 31
mps 14 5401.236204 0
mps 14 5380.549074 1 18
mps 14 5374.012018 1 32
mps 14 5363.017515 1 29
mps 14 5363.017515 1 15
mps 14 5362.859432 1 17
mps 14 5362.024705 1 21
mps 14 5356.379969 1 28
mps 14 5344.153389 2 28 32
mps 14 5340.332316 2 17 28
mps 14 5336.554148 1 24
mps 14 5310.582350 2 21 28
mps 14 5223.476025 1 20
mps 14 5189.951846 1 16
mps 14 5163.796264 2 16 28
mps 14 5163.372230 2 20 28
mps 14 5056.146279 2 16 20
mps 14 3824.089779 1 12
mps 14 3817.642580 2 12 28
mps 14 3812.355996 2 12 39
mps 14 3762.333274 2 12 42
mps 14 3755.523883 2 12 20
mps 14 3730.406775 2 12 16
mps 14 3605.703394 2 12 41
mps 14 2981.169264 2 12 31
mps 14 1505.156622 1 13
mps 15 13581.628385 0
mps 15 13569.076804 1 30
mps 15 13559.374053 1 13
mps 15 13555.650479 1 26
mps 15 13543.409695 1 14
mps 15 13527.486947 1 21
mps 15 12785.634145 1 1
mps 15 12677.343359 1 8
mps 15 12540.472979 1 9
mps 15 12504.286415 1 4
mps 15 12413.023694 1 10
mps 15 12258.912028 1 6
mps 15 12081.996883 1 3
mps 15 12041.691701 2 4 8
mps 15 12001.585308 2 1 4
mps 15 11997.932571 2 1 8
mps 15 11977.639954 2 4 10
mps 15 11954.056606 2 8 9
mps 15 11930.756779 1 7
mps 15 11915.852509 2 1 9
mps 15 11897.454460 2 8 10
mps 15 11891.909643 2 4 9
mps 15 11891.001975 2 9 10
mps 15 11838.744120 2 1 10
mps 15 11794.677219 3 1 9 10
mps 15 11757.755935 3 1 8 10
mps 15 11721.674686 2 4 7
mps 15 11701.293723 2 3 4
mps 15 11663.511457 2 4 6
mps 15 11661.592497 3 1 8 9
mps 15 11644.588547 2 6 10
mps 15 11594.804761 2 1 6
mps 15 11576.751487 2 6 9
mps 15 11572.237261 2 6 8
mps 15 11562.220607 1 11
mps 15 11527.661765 2 3 10
mps 15 11517.705462 2 3 8
mps 15 11509.823970 3 1 6 10
mps 15 11478.580013 2 9 11
mps 15 11451.731457 1 2
mps 15 11444.949600 2 1 3
mps 15 11419.361248 2 1 7
mps 15 11415.814351 2 8 11
mps 15 11387.035177 2 3 9
mps 15 11377.733407 2 7 8
mps 15 11364.604988 2 3 6
mps 15 11357.270786 2 2 4
mps 15 11319.829340 3 1 3 8
mps 15 11312.876946 3 1 7 8
mps 15 11307.718487 2 7 10
mps 15 11304.310007 3 1 6 9
mps 15 11246.416748 3 1 3 9
mps 15 11236.242368 3 1 6 8
mps 15 11221.435096 2 7 9
mps 15 11217.577986 3 1 7 9
mps 15 11216.733109 2 3 11
mps 15 11201.993512 3 1 3 6
mps 15 11185.119302 2 1 11
mps 15 11132.530270 2 6 11
mps 15 11031.346615 2 6 7
mps 15 11027.526042 2 3 7
mps 15 11022.853252 2 1 2
mps 15 11003.723958 3 1 6 7
mps 15 11002.303146 2 7 11
mps 15 10906.497993 2 2 8
mps 15 10884.330950 1 5
mps 15 10867.139284 2 5 10
mps 15 10839.760002 1 28
mps 15 10822.391856 1 0
mps 15 10782.194982 2 2 10
mps 15 10778.030414 2 0 10
mps 15 10734.870744 2 2 9
mps 15 10686.295677 2 5 8
mps 15 10680.369671 2 3 5
mps 15 10618.028166 2 5 9
mps 15 10579.034482 2 2 11
mps 15 10544.943105 2 2 7
mps 15 10530.453907 2 0 9
mps 15 10521.206157 2 0 8
mps 15 10470.769480 2 2 6
mps 15 10469.700777 2 5 6
mps 15 10463.814185 2 2 3
mps 15 10463.581005 2 0 5
mps 15 10427.590671 2 1 5
mps 15 10417.678461 2 0 1
mps 15 10356.068018 2 0 3
mps 15 10327.181901 2 0 6
mps 15 10281.108928 2 5 7
mps 15 10247.072154 2 0 7
mps 15 10132.490035 2 8 28
mps 15 10113.300316 2 4 28
mps 15 10108.731784 2 1 28
mps 15 10038.673482 2 9 28
mps 15 10027.614475 2 10 28
mps 15 9955.354362 2 2 5
mps 15 9933.426609 3 1 4 28
mps 15 9915.923987 3 8 9 28
mps 15 9849.258485 2 0 2
mps 15 9793.699997 2 6 28
mps 15 9716.547589 2 3 28
mps 15 9708.009023 3 1 10 28
mps 15 9699.160103 3 3 8 28
mps 15 9648.313063 3 1 8 28
mps 15 9641.765996 3 3 9 28
mps 15 9630.852847 3 3 6 28
mps 15 9597.561121 3 1 9 28
mps 15 9568.790946 3 6 9 28
mps 15 9562.479443 2 5 28
mps 15 9543.097136 3 6 8 28
mps 15 9531.643613 3 1 5 28
mps 15 9390.485661 2 11 28
mps 15 9388.830795 2 7 28
mps 15 9328.621665 3 1 3 28
mps 15 9317.907782 3 1 6 28
mps 15 9282.526728 3 7 9 28
mps 15 9224.340291 2 0 28
mps 15 9184.070459 3 0 1 28
mps 15 9140.116987 3 6 7 28
mps 15 9127.126518 3 1 7 28
mps 15 9045.798473 2 2 28
mps 15 9005.150057 3 2 7 28
mps 15 8943.035768 3 2 9 28
mps 15 8910.565297 3 1 2 28
mps 15 8749.014357 3 2 6 28
mps 15 5559.052641 1 19
mps 15 5476.553447 2 10 19
mps 15 5474.981688 2 8 19
mps 15 5456.938404 2 0 19
mps 15 5429.262695 2 3 19
mps 15 5376.532065 2 9 19
mps 15 5334.899525 2 1 19
mps 15 5289.734618 1 24
mps 15 5223.465619 2 6 19
mps 15 5122.102977 2 7 19
mps 15 4987.593223 2 1 24
mps 15 4857.755337 2 2 19
mps 15 4819.241633 2 19 28
mps 15 4738.734040 2 2 24
mps 15 4661.701007 2 24 28
mps 15 2699.866370 2 19 24
mps 15 658.118136 1 29
mps 16 7919.593905 0
mps 16 7889.121476 1 12
mps 16 7746.604985 1 13
mps 16 7708.309547 1 14
mps 16 7191.694602 1 18
mps 16 7158.716316 2 13 18
mps 16 7127.240593 2 14 18
mps 16 6749.488238 1 17
mps 16 6725.013964 2 13 17
mps 16 6703.398734 2 14 17
mps 16 5703.882468 2 17 18
mps 17 7477.019075 0
mps 17 7456.082507 1 13
mps 17 7438.642303 1 14
mps 17 6306.913408 1 16
mps 17 6034.718711 2 16 18
mps 18 6709.095391 0
mps 18 6691.457731 1 13
mps 18 6688.408261 1 14
mps 18 5981.196088 1 16
mps 18 5709.001391 2 16 17
mps 19 8285.822998 0
mps 19 8269.780995 1 21
mps 19 8261.521336 1 26
mps 19 7992.103433 1 8
mps 19 7989.459264 1 10
mps 19 7977.229129 1 1
mps 19 7953.682677 1 9
mps 19 7861.642819 1 7
mps 19 7825.188172 1 6
mps 19 7788.376029 2 9 10
mps 19 7772.983400 2 8 10
mps 19 7705.723206 1 3
mps 19 7697.049597 2 8 9
mps 19 7693.089906 1 4
mps 19 7687.432177 2 6 10
mps 19 7646.965137 1 2
mps 19 7645.579935 2 1 7
mps 19 7638.499576 2 4 7
mps 19 7630.913392 2 1 10
mps 19 7593.620269 2 7 10
mps 19 7592.707246 2 7 8
mps 19 7573.886328 3 1 7 10
mps 19 7565.220189 2 7 9
mps 19 7562.445726 2 6 9
mps 19 7560.521493 2 1 8
mps 19 7559.335959 2 1 9
mps 19 7559.008065 2 4 10
mps 19 7557.965408 2 6 8
mps 19 7536.027491 3 6 8 9
mps 19 7524.910331 3 1 9 10
mps 19 7509.644451 2 4 8
mps 19 7499.763900 2 2 7
mps 19 7483.185864 2 1 4
mps 19 7482.261655 2 1 6
mps 19 7481.811458 3 1 8 10
mps 19 7481.612848 2 4 9
mps 19 7474.511537 2 1 2
mps 19 7472.289176 2 3 6
mps 19 7457.557666 2 3 10
mps 19 7456.094158 2 3 8
mps 19 7451.946838 3 1 6 10
mps 19 7424.557826 3 1 7 8
mps 19 7423.162890 2 3 9
mps 19 7415.897046 2 2 4
mps 19 7413.593177 3 1 7 9
mps 19 7386.514440 3 1 4 9
mps 19 7378.398522 3 1 4 8
mps 19 7359.790492 2 1 3
mps 19 7349.105595 3 1 8 9
mps 19 7346.009928 2 4 6
mps 19 7337.005898 2 2 10
mps 19 7328.673848 2 6 7
mps 19 7313.813289 2 2 8
mps 19 7302.005608 3 1 4 6
mps 19 7294.980236 2 3 4
mps 19 7291.925381 3 1 3 10
mps 19 7249.687401 3 1 6 7
mps 19 7245.287010 1 11
mps 19 7243.975505 3 1 3 6
mps 19 7240.003964 3 1 6 9
mps 19 7227.875518 3 1 2 8
mps 19 7212.052045 3 1 6 8
mps 19 7211.313785 2 3 7
mps 19 7206.988861 3 1 3 7
mps 19 7188.204463 2 2 9
mps 19 7188.060063 2 9 11
mps 19 7181.900070 2 8 11
mps 19 7181.154796 2 2 6
mps 19 7154.677971 3 1 3 9
mps 19 7149.678198 3 1 3 8
mps 19 7147.128821 3 2 6 8
mps 19 7139.314907 2 4 11
mps 19 7120.440334 3 1 2 6
mps 19 7117.761677 2 7 11
mps 19 7117.005241 2 6 11
mps 19 7116.058448 3 1 2 9
mps 19 7104.495143 3 2 6 9
mps 19 7102.844248 2 2 3
mps 19 7035.512799 2 3 11
mps 19 7018.165179 2 1 11
mps 19 6944.936977 1 0
mps 19 6851.855918 2 2 11
mps 19 6842.614734 2 0 9
mps 19 6799.028916 2 0 7
mps 19 6797.177746 2 0 4
mps 19 6792.980826 2 0 6
mps 19 6756.160216 2 0 1
mps 19 6740.104924 2 0 11
mps 19 6731.537257 2 0 8
mps 19 6727.054478 1 5
mps 19 6699.106901 3 0 1 8
mps 19 6676.291130 2 5 9
mps 19 6671.785269 2 3 5
mps 19 6663.992012 2 4 5
mps 19 6638.378093 2 5 6
mps 19 6635.541083 2 0 3
mps 19 6593.726069 2 5 8
mps 19 6556.805876 2 5 11
mps 19 6547.012878 1 28
mps 19 6517.764693 2 0 2
mps 19 6498.540313 2 5 7
mps 19 6494.579582 2 1 5
mps 19 6400.499861 2 10 28
mps 19 6366.275428 2 9 28
mps 19 6300.540745 2 8 28
mps 19 6300.194961 2 2 5
mps 19 6271.970711 2 0 5
mps 19 6261.551727 3 8 9 28
mps 19 6250.036180 2 1 28
mps 19 6180.784343 2 6 28
mps 19 6134.978125 3 6 9 28
mps 19 6131.652948 3 1 10 28
mps 19 6070.959968 2 3 28
mps 19 6055.252107 3 6 8 28
mps 19 6026.828469 3 3 8 28
mps 19 6023.292094 3 1 9 28
mps 19 6015.625279 2 7 28
mps 19 6004.704037 3 7 9 28
mps 19 5973.923604 2 4 28
mps 19 5961.435211 3 7 8 28
mps 19 5946.150687 3 4 6 28
mps 19 5941.858472 3 1 8 28
mps 19 5897.011734 3 1 6 28
mps 19 5895.713615 3 1 7 28
mps 19 5891.090010 3 1 4 28
mps 19 5822.297399 3 1 3 28
mps 19 5782.468183 3 6 7 28
mps 19 5778.449379 2 2 28
mps 19 5771.209273 3 3 7 28
mps 19 5768.099035 2 5 28
mps 19 5762.928460 3 2 7 28
mps 19 5752.960269 2 0 28
mps 19 5749.979988 2 11 28
mps 19 5738.697501 3 1 2 28
mps 19 5718.623627 3 2 5 28
mps 19 5703.523613 3 2 11 28
mps 19 5694.236059 3 0 1 28
mps 19 5691.853786 3 1 5 28
mps 19 5670.012465 3 1 11 28
mps 19 5641.684988 3 0 2 28
mps 19 5617.573190 3 2 8 28
mps 19 5616.393670 3 2 9 28
mps 19 5557.416221 3 2 3 28
mps 19 5497.718547 3 2 6 28
mps 19 4169.351773 1 24
mps 19 4055.031026 2 3 24
mps 19 4002.055976 2 4 24
mps 19 3794.133942 2 7 24
mps 19 3662.884515 2 1 24
mps 19 3376.521365 2 2 24
mps 19 3325.934045 2 24 28
mps 19 2980.573059 3 2 24 28
mps 19 2963.137064 3 1 24 28
mps 19 263.247254 1 29
mps 19 263.247254 1 15
mps 20 6299.504356 0
mps 20 6297.522952 1 25
mps 20 6286.078918 1 28
mps 20 6282.557255 1 34
mps 20 6282.557255 1 35
mps 20 6256.666294 1 12
mps 20 6250.736002 2 12 28
mps 20 6177.900744 1 23
mps 20 6154.386024 1 13
mps 20 6131.057508 2 13 28
mps 20 6121.744177 1 14
mps 20 6112.062378 2 13 23
mps 20 6099.293646 1 22
mps 20 6096.635899 2 12 22
mps 20 6093.668076 1 33
mps 20 6093.071179 2 14 28
mps 20 6081.750178 2 14 23
mps 20 6036.688603 2 23 33
mps 20 6029.744128 2 13 33
mps 20 6023.553719 2 22 23
mps 20 6006.520328 2 13 22
mps 20 6000.893287 2 14 33
mps 20 5976.771838 2 14 22
mps 20 5923.067649 2 22 33
mps 20 5700.517787 1 32
mps 20 5639.066985 2 13 32
mps 20 5617.754523 2 14 32
mps 20 5573.601980 2 23 32
mps 20 5469.607075 2 22 32
mps 20 4722.111314 1 21
mps 20 4670.516359 2 13 21
mps 20 4646.375529 2 14 21
mps 20 4322.645445 2 21 33
mps 20 3298.161633 2 21 32
mps 21 6350.482794 0
mps 21 6342.920163 1 12
mps 21 6334.440790 1 19
mps 21 6318.580070 1 13
mps 21 6311.271295 1 14
mps 21 6301.000707 1 28
mps 21 6296.341356 1 29
mps 21 6296.341356 1 15
mps 21 6263.803325 2 13 28
mps 21 6255.203087 2 14 28
mps 21 6252.781007 1 24
mps 21 5967.260833 1 23
mps 21 5944.315741 2 23 28
mps 21 5804.917839 1 22
mps 21 5773.335533 2 22 28
mps 21 5753.973195 2 22 24
mps 21 5385.420199 2 22 23
mps 21 4773.089751 1 20
mps 21 4769.366907 2 20 28
mps 21 4608.205439 2 20 23
mps 21 4605.181368 2 20 33
mps 21 4483.741593 2 20 22
mps 21 4422.726292 3 20 22 23
mps 21 3966.868839 2 20 32
mps 21 3892.535716 3 20 22 32
mps 22 6142.514644 0
mps 22 5942.303934 1 20
mps 22 5933.991687 2 20 32
mps 22 5596.949690 1 21
mps 22 5590.287807 2 21 23
mps 23 6532.984336 0
mps 23 6411.380725 1 20
mps 23 6149.762376 1 21
mps 23 6143.100493 2 21 22
mps 24 8620.952834 0
mps 24 8600.666766 1 26
mps 24 8572.103002 1 13
mps 24 8567.528630 1 30
mps 24 8556.270778 1 14
mps 24 8523.251047 1 21
mps 24 8456.159058 1 1
mps 24 8449.304358 2 1 13
mps 24 8437.585641 2 1 14
mps 24 8414.852454 2 1 21
mps 24 8302.396680 1 4
mps 24 8190.711802 2 1 4
mps 24 8029.233688 1 2
mps 24 8002.816979 1 8
mps 24 7988.614910 2 2 4
mps 24 7889.412315 2 1 8
mps 24 7881.321390 2 4 8
mps 24 7878.612246 1 7
mps 24 7791.699864 2 1 7
mps 24 7790.056671 2 1 2
mps 24 7762.260982 1 3
mps 24 7674.909471 2 1 3
mps 24 7629.148332 1 6
mps 24 7589.600761 1 9
mps 24 7578.515084 1 10
mps 24 7558.838137 2 4 10
mps 24 7556.257922 2 4 6
mps 24 7535.681304 2 1 9
mps 24 7528.224473 2 1 6
mps 24 7512.862135 2 1 10
mps 24 7510.336783 2 2 8
mps 24 7509.052188 3 1 2 8
mps 24 7477.448104 2 4 9
mps 24 7454.125750 2 2 7
mps 24 7377.163966 2 7 8
mps 24 7317.316217 2 3 7
mps 24 7312.692524 2 2 3
mps 24 7264.034104 2 3 8
mps 24 7193.099375 2 8 10
mps 24 7184.888368 1 11
mps 24 7180.382360 2 8 9
mps 24 7161.431697 2 2 10
mps 24 7150.489327 2 2 9
mps 24 7139.221677 2 3 6
mps 24 7138.345479 2 2 6
mps 24 7137.677112 3 1 2 6
mps 24 7128.944445 2 6 7
mps 24 7117.463827 2 7 10
mps 24 7093.581705 2 2 11
mps 24 7062.203085 2 3 10
mps 24 7050.920966 2 6 8
mps 24 7042.239221 3 2 6 8
mps 24 7031.808936 3 3 6 8
mps 24 7027.343290 3 6 7 8
mps 24 7008.929957 2 7 9
mps 24 6999.798225 2 7 11
mps 24 6986.160038 2 8 11
mps 24 6964.327695 2 6 10
mps 24 6910.512712 2 9 10
mps 24 6891.566071 2 3 9
mps 24 6858.623286 2 3 11
mps 24 6856.746816 1 5
mps 24 6851.761802 2 10 11
mps 24 6842.368772 2 6 9
mps 24 6836.177130 1 28
mps 24 6801.886038 2 1 5
mps 24 6774.432515 2 9 11
mps 24 6773.732642 2 2 5
mps 24 6739.048123 3 6 8 9
mps 24 6726.167688 2 6 11
mps 24 6706.354050 2 1 28
mps 24 6702.237582 2 4 28
mps 24 6633.458337 2 5 7
mps 24 6618.075757 2 3 5
mps 24 6575.615266 2 5 8
mps 24 6575.240784 1 0
mps 24 6489.756922 2 5 11
mps 24 6473.948813 2 2 28
mps 24 6465.155332 2 5 10
mps 24 6449.861636 2 0 2
mps 24 6394.849145 3 1 2 28
mps 24 6371.529069 2 5 6
mps 24 6363.594113 2 0 7
mps 24 6357.052681 2 0 11
mps 24 6327.912243 2 8 28
mps 24 6319.867736 3 1 8 28
mps 24 6282.902838 2 5 9
mps 24 6261.483550 2 0 3
mps 24 6254.851407 2 0 8
mps 24 6246.065733 3 2 8 28
mps 24 6219.441287 2 0 10
mps 24 6158.735746 2 7 28
mps 24 6083.766810 2 0 6
mps 24 6063.887871 2 0 5
mps 24 6003.880853 2 6 28
mps 24 6001.880863 2 0 9
mps 24 6001.228234 3 1 6 28
mps 24 5977.338746 2 10 28
mps 24 5966.064777 3 2 6 28
mps 24 5959.552061 2 9 28
mps 24 5949.863965 3 7 8 28
mps 24 5936.025867 3 2 9 28
mps 24 5912.751519 2 5 28
mps 24 5899.664944 3 8 10 28
mps 24 5872.788514 3 7 10 28
mps 24 5825.098783 2 3 28
mps 24 5806.270764 3 8 9 28
mps 24 5791.418889 3 5 9 28
mps 24 5758.381809 3 6 7 28
mps 24 5746.855672 3 3 7 28
mps 24 5669.198527 2 0 28
mps 24 5664.342325 3 6 10 28
mps 24 5659.452789 3 6 8 28
mps 24 5625.410466 3 9 10 28
mps 24 5624.429763 3 3 8 28
mps 24 5623.352842 3 7 9 28
mps 24 5604.158332 3 3 10 28
mps 24 5568.505126 3 0 6 28
mps 24 5564.024880 3 3 6 28
mps 24 5505.035751 3 0 9 28
mps 24 5481.735239 2 11 28
mps 24 5470.118440 3 6 9 28
mps 24 5326.635252 3 3 9 28
mps 24 4504.481609 1 19
mps 24 4423.362637 2 5 19
mps 24 4381.052560 2 11 19
mps 24 4342.726909 2 8 19
mps 24 4141.814444 2 1 19
mps 24 4111.568802 2 3 19
mps 24 4049.694202 2 9 19
mps 24 3981.865234 2 6 19
mps 24 3980.009774 2 10 19
mps 24 3970.557188 2 0 19
mps 24 3811.103369 2 7 19
mps 24 3758.789916 2 2 19
mps 24 3615.098298 2 19 28
mps 24 3569.894728 3 7 19 28
mps 24 3502.081884 3 6 19 28
mps 24 3476.326807 3 9 19 28
mps 24 3419.454934 3 1 19 28
mps 24 329.059068 1 29
mps 24 329.059068 1 15
mps 25 6317.171660 0
mps 25 6315.190256 1 20
mps 25 6289.249335 1 32
mps 25 6273.545858 1 28
mps 25 6266.983524 2 28 32
mps 25 6265.046667 1 51
mps 25 6265.046667 1 52
mps 25 6260.181512 2 28 52
mps 25 6260.181512 2 28 51
mps 25 5773.469907 1 27
mps 25 5748.986169 2 27 28
mps 25 5313.767854 1 34
mps 25 5313.767854 1 35
mps 25 5285.032398 2 28 35
mps 25 5285.032398 2 28 34
mps 25 4754.078263 1 26
mps 25 4736.336531 2 26 32
mps 25 4710.726161 2 26 52
mps 25 4710.726161 2 26 51
mps 25 4533.508857 2 27 35
mps 25 4533.508857 2 27 34
mps 25 2515.988570 2 26 35
mps 25 2515.988570 2 26 34
mps 26 6162.976196 0
mps 26 6142.690128 1 24
mps 26 6138.674534 1 19
mps 26 6136.998290 1 29
mps 26 6136.998290 1 15
mps 26 6040.371485 1 28
mps 26 4599.882799 1 25
mps 26 4557.766898 1 27
mps 26 4554.169579 2 25 28
mps 26 4377.881881 2 27 28
mps 26 3635.466163 2 25 27
mps 26 3611.782004 3 25 27 28
mps 26 3388.648047 2 25 35
mps 26 3388.648047 2 25 34
mps 26 2937.206081 3 25 27 34
mps 26 2937.206081 3 25 27 35
mps 27 6477.046286 0
mps 27 5933.344533 1 25
mps 27 5730.101966 2 25 35
mps 27 5730.101966 2 25 34
mps 27 4871.836988 1 26
mps 27 4831.929137 2 26 28
mps 28 2807.680196 0
mps 28 2806.112591 1 30
mps 28 2805.173238 1 7
mps 28 2802.106901 1 12
mps 28 2794.254759 1 20
mps 28 2772.860037 1 13
mps 28 2764.054395 1 25
mps 28 2762.823961 1 14
mps 28 2758.198110 1 21
mps 28 2749.531521 2 13 20
mps 28 2745.426857 2 13 25
mps 28 2742.288764 1 8
mps 28 2734.150964 2 14 20
mps 28 2732.743493 2 14 25
mps 28 2729.351942 2 21 25
mps 28 2728.375261 2 8 13
mps 28 2723.670167 2 8 25
mps 28 2720.045167 1 4
mps 28 2718.776824 2 4 14
mps 28 2718.083293 2 13 21
mps 28 2717.048504 2 8 14
mps 28 2714.931068 2 4 21
mps 28 2714.778661 2 8 21
mps 28 2706.755754 2 14 21
mps 28 2699.234937 1 9
mps 28 2698.841721 2 4 8
mps 28 2685.075486 1 26
mps 28 2680.119379 2 9 25
mps 28 2674.574486 2 9 21
mps 28 2672.398611 2 9 13
mps 28 2669.180238 1 2
mps 28 2668.771826 2 13 26
mps 28 2662.647472 1 6
mps 28 2662.211294 2 9 14
mps 28 2660.191554 2 2 21
mps 28 2656.509683 2 14 26
mps 28 2656.364299 2 2 25
mps 28 2653.385325 2 21 26
mps 28 2650.118714 2 4 9
mps 28 2648.656473 1 10
mps 28 2648.376758 2 4 26
mps 28 2646.381601 2 6 25
mps 28 2645.167634 2 26 27
mps 28 2645.000564 2 6 13
mps 28 2642.036909 2 8 26
mps 28 2640.856142 2 10 25
mps 28 2638.782464 2 1 2
mps 28 2637.118673 2 2 8
mps 28 2635.530420 2 6 14
mps 28 2634.851683 2 6 21
mps 28 2634.529390 2 10 21
mps 28 2633.547177 2 10 13
mps 28 2632.417641 1 11
mps 28 2631.871444 2 10 11
mps 28 2630.438941 2 8 9
mps 28 2628.696548 1 3
mps 28 2626.124824 2 3 25
mps 28 2625.474918 2 10 14
mps 28 2624.627153 2 3 13
mps 28 2621.446447 2 6 8
mps 28 2615.905230 2 3 21
mps 28 2613.093423 2 3 14
mps 28 2609.494538 2 4 10
mps 28 2608.287123 2 3 8
mps 28 2603.463199 2 4 6
mps 28 2602.787270 2 9 26
mps 28 2600.266863 2 6 9
mps 28 2597.006730 3 8 9 26
mps 28 2595.978714 2 8 10
mps 28 2592.796437 2 2 4
mps 28 2592.782065 2 2 7
mps 28 2592.040852 2 8 11
mps 28 2591.730764 3 6 8 9
mps 28 2588.477988 2 9 10
mps 28 2581.576738 2 2 9
mps 28 2579.735794 2 9 11
mps 28 2576.129683 2 6 10
mps 28 2575.593527 2 2 26
mps 28 2575.131273 2 6 11
mps 28 2570.884415 2 11 26
mps 28 2569.186803 2 10 26
mps 28 2565.658845 2 6 26
mps 28 2563.772266 2 3 4
mps 28 2560.029690 2 2 11
mps 28 2544.025140 2 3 26
mps 28 2535.010943 2 3 9
mps 28 2533.538564 3 3 9 26
mps 28 2526.847745 2 3 10
mps 28 2523.493904 2 3 6
mps 28 2511.496886 2 2 6
mps 28 2509.374649 2 2 10
mps 28 2487.225714 2 3 11
mps 28 2466.983963 2 2 3
mps 28 2460.336211 3 2 3 6
mps 28 1992.922446 1 0
mps 28 1992.865540 2 0 9
mps 28 1986.843651 2 0 2
mps 28 1970.258830 2 0 6
mps 28 1968.221854 2 0 10
mps 28 1947.750122 2 0 26
mps 28 1921.640342 2 0 3
mps 28 1782.534202 1 5
mps 28 1781.826523 2 5 26
mps 28 1756.300549 2 5 6
mps 28 1740.345218 2 3 5
mps 28 1470.790114 2 0 5
mps 28 1068.870076 1 19
mps 28 1059.697070 2 10 19
mps 28 1059.530547 2 19 26
mps 28 1050.726076 2 8 19
mps 28 1022.904493 1 24
mps 28 1018.243643 2 6 19
mps 28 1000.878865 2 4 19
mps 28 993.933311 2 3 19
mps 28 959.155698 2 7 19
mps 28 929.264511 2 11 24
mps 28 838.538905 2 5 24
mps 28 823.578759 2 5 19
mps 28 800.945737 2 0 19
mps 28 800.664480 2 2 19
mps 28 691.534350 2 3 24
mps 28 179.486764 2 19 24
mps 28 65.811814 1 29
mps 28 65.811814 1 15
mps 29 13581.628385 0
mps 29 13569.076804 1 30
mps 29 13559.374053 1 13
mps 29 13555.650479 1 26
mps 29 13543.409695 1 14
mps 29 13527.486947 1 21
mps 29 12785.634145 1 1
mps 29 12677.343359 1 8
mps 29 12540.472979 1 9
mps 29 12504.286415 1 4
mps 29 12413.023694 1 10
mps 29 12258.912028 1 6
mps 29 12081.996883 1 3
mps 29 12041.691701 2 4 8
mps 29 12001.585308 2 1 4
mps 29 11997.932571 2 1 8
mps 29 11977.639954 2 4 10
mps 29 11954.056606 2 8 9
mps 29 11930.756779 1 7
mps 29 11915.852509 2 1 9
mps 29 11897.454460 2 8 10
mps 29 11891.909643 2 4 9
mps 29 11891.001975 2 9 10
mps 29 11838.744120 2 1 10
mps 29 11794.677219 3 1 9 10
mps 29 11757.755935 3 1 8 10
mps 29 11721.674686 2 4 7
mps 29 11701.293723 2 3 4
mps 29 11663.511457 2 4 6
mps 29 11661.592497 3 1 8 9
mps 29 11644.588547 2 6 10
mps 29 11594.804761 2 1 6
mps 29 11576.751487 2 6 9
mps 29 11572.237261 2 6 8
mps 29 11562.220607 1 11
mps 29 11527.661765 2 3 10
mps 29 11517.705462 2 3 8
mps 29 11509.823970 3 1 6 10
mps 29 11478.580013 2 9 11
mps 29 11451.731457 1 2
mps 29 11444.949600 2 1 3
mps 29 11419.361248 2 1 7
mps 29 11415.814351 2 8 11
mps 29 11387.035177 2 3 9
mps 29 11377.733407 2 7 8
mps 29 11364.604988 2 3 6
mps 29 11357.270786 2 2 4
mps 29 11319.829340 3 1 3 8
mps 29 11312.876946 3 1 7 8
mps 29 11307.718487 2 7 10
mps 29 11304.310007 3 1 6 9
mps 29 11246.416748 3 1 3 9
mps 29 11236.242368 3 1 6 8
mps 29 11221.435096 2 7 9
mps 29 11217.577986 3 1 7 9
mps 29 11216.733109 2 3 11
mps 29 11201.993512 3 1 3 6
mps 29 11185.119302 2 1 11
mps 29 11132.530270 2 6 11
mps 29 11031.346615 2 6 7
mps 29 11027.526042 2 3 7
mps 29 11022.853252 2 1 2
mps 29 11003.723958 3 1 6 7
mps 29 11002.303146 2 7 11
mps 29 10906.497993 2 2 8
mps 29 10884.330950 1 5
mps 29 10867.139284 2 5 10
mps 29 10839.760002 1 28
mps 29 10822.391856 1 0
mps 29 10782.194982 2 2 10
mps 29 10778.030414 2 0 10
mps 29 10734.870744 2 2 9
mps 29 10686.295677 2 5 8
mps 29 10680.369671 2 3 5
mps 29 10618.028166 2 5 9
mps 29 10579.034482 2 2 11
mps 29 10544.943105 2 2 7
mps 29 10530.453907 2 0 9
mps 29 10521.206157 2 0 8
mps 29 10470.769480 2 2 6
mps 29 10469.700777 2 5 6
mps 29 10463.814185 2 2 3
mps 29 10463.581005 2 0 5
mps 29 10427.590671 2 1 5
mps 29 10417.678461 2 0 1
mps 29 10356.068018 2 0 3
mps 29 10327.181901 2 0 6
mps 29 10281.108928 2 5 7
mps 29 10247.072154 2 0 7
mps 29 10132.490035 2 8 28
mps 29 10113.300316 2 4 28
mps 29 10108.731784 2 1 28
mps 29 10038.673482 2 9 28
mps 29 10027.614475 2 10 28
mps 29 9955.354362 2 2 5
mps 29 9933.426609 3 1 4 28
mps 29 9915.923987 3 8 9 28
mps 29 9849.258485 2 0 2
mps 29 9793.699997 2 6 28
mps 29 9716.547589 2 3 28
mps 29 9708.009023 3 1 10 28
mps 29 9699.160103 3 3 8 28
mps 29 9648.313063 3 1 8 28
mps 29 9641.765996 3 3 9 28
mps 29 9630.852847 3 3 6 28
mps 29 9597.561121 3 1 9 28
mps 29 9568.790946 3 6 9 28
mps 29 9562.479443 2 5 28
mps 29 9543.097136 3 6 8 28
mps 29 9531.643613 3 1 5 28
mps 29 9390.485661 2 11 28
mps 29 9388.830795 2 7 28
mps 29 9328.621665 3 1 3 28
mps 29 9317.907782 3 1 6 28
mps 29 9282.526728 3 7 9 28
mps 29 9224.340291 2 0 28
mps 29 9184.070459 3 0 1 28
mps 29 9140.116987 3 6 7 28
mps 29 9127.126518 3 1 7 28
mps 29 9045.798473 2 2 28
mps 29 9005.150057 3 2 7 28
mps 29 8943.035768 3 2 9 28
mps 29 8910.565297 3 1 2 28
mps 29 8749.014357 3 2 6 28
mps 29 5559.052641 1 19
mps 29 5476.553447 2 10 19
mps 29 5474.981688 2 8 19
mps 29 5456.938404 2 0 19
mps 29 5429.262695 2 3 19
mps 29 5376.532065 2 9 19
mps 29 5334.899525 2 1 19
mps 29 5289.734618 1 24
mps 29 5223.465619 2 6 19
mps 29 5122.102977 2 7 19
mps 29 4987.593223 2 1 24
mps 29 4857.755337 2 2 19
mps 29 4819.241633 2 19 28
mps 29 4738.734040 2 2 24
mps 29 4661.701007 2 24 28
mps 29 2699.866370 2 19 24
mps 29 658.118136 1 15
mps 30 9859.353867 0
mps 30 9857.786261 1 28
mps 30 9846.802287 1 29
mps 30 9846.802287 1 15
mps 30 9805.929662 1 24
mps 31 5921.408784 0
mps 31 5915.036048 1 43
mps 31 5808.111638 1 37
mps 31 5375.409485 1 39
mps 31 5355.064655 1 36
mps 31 5312.876019 2 39 40
mps 31 5269.011168 2 36 40
mps 31 5230.128647 2 36 39
mps 31 5102.379090 1 42
mps 31 5085.073034 2 42 43
mps 31 4941.994897 2 39 42
mps 31 4883.655850 2 36 42
mps 31 4376.132959 1 41
mps 31 3158.134302 1 12
mps 31 3152.593483 2 12 37
mps 31 2922.458429 2 12 39
mps 31 2910.182588 2 12 36
mps 31 2751.691383 2 12 42
mps 31 2315.213787 2 12 14
mps 31 2287.079479 3 12 14 39
mps 31 2268.975290 3 12 14 36
mps 31 2242.610791 2 12 41
mps 31 2169.159310 3 12 14 42
mps 31 1891.558750 2 12 13
mps 31 1889.930493 3 12 13 36
mps 31 1834.827789 3 12 13 42
mps 31 1824.557738 3 12 14 41
mps 31 1595.429319 3 12 13 41
mps 32 6334.332636 0
mps 32 6313.628449 1 13
mps 32 6307.108450 1 14
mps 32 6306.410311 1 25
mps 32 6194.649267 1 34
mps 32 6194.649267 1 35
mps 32 5735.346067 1 20
mps 32 5727.033820 2 20 22
mps 32 5679.966880 2 20 35
mps 32 5679.966880 2 20 34
mps 32 4929.125156 2 20 21
mps 32 4870.055828 1 33
mps 32 4846.369321 2 25 33
mps 32 4574.779400 2 20 33
mps 32 4549.041799 2 33 35
mps 32 4549.041799 2 33 34
mps 32 4480.662950 3 20 33 35
mps 32 4480.662950 3 20 33 34
mps 32 4231.407406 3 20 21 33
mps 33 7732.676022 0
mps 33 7526.839742 1 20
mps 33 7358.931359 2 20 21
mps 33 6268.399215 1 32
mps 33 6119.722927 2 32 35
mps 33 6119.722927 2 32 34
mps 34 6177.726091 0
mps 34 6167.360406 1 36
mps 34 6161.658141 1 55
mps 34 6161.625343 1 54
mps 34 6161.127499 1 46
mps 34 6160.778990 1 20
mps 34 6157.670356 1 37
mps 34 6149.126448 1 43
mps 34 6119.839776 1 44
mps 34 6038.042722 1 32
mps 34 6031.227271 2 32 44
mps 34 5973.255244 1 51
mps 34 5973.255244 1 52
mps 34 5959.874334 2 44 51
mps 34 5959.874334 2 44 52
mps 34 5910.441460 2 32 52
mps 34 5910.441460 2 32 51
mps 34 5900.258952 2 43 51
mps 34 5900.258952 2 43 52
mps 34 5889.366434 2 32 33
mps 34 5174.322285 1 25
mps 34 5126.571147 2 25 32
mps 34 5120.144210 2 25 52
mps 34 5120.144210 2 25 51
mps 34 4971.079718 2 25 27
mps 34 3963.087534 2 25 26
mps 34 35.897353 1 35
mps 35 6177.726091 0
mps 35 6167.360406 1 36
mps 35 6161.658141 1 55
mps 35 6161.625343 1 54
mps 35 6161.127499 1 46
mps 35 6160.778990 1 20
mps 35 6157.670356 1 37
mps 35 6149.126448 1 43
mps 35 6119.839776 1 44
mps 35 6038.042722 1 32
mps 35 6031.227271 2 32 44
mps 35 5973.255244 1 51
mps 35 5973.255244 1 52
mps 35 5959.874334 2 44 51
mps 35 5959.874334 2 44 52
mps 35 5910.441460 2 32 52
mps 35 5910.441460 2 32 51
mps 35 5900.258952 2 43 51
mps 35 5900.258952 2 43 52
mps 35 5889.366434 2 32 33
mps 35 5174.322285 1 25
mps 35 5126.571147 2 25 32
mps 35 5120.144210 2 25 52
mps 35 5120.144210 2 25 51
mps 35 4971.079718 2 25 27
mps 35 3963.087534 2 25 26
mps 35 35.897353 1 34
mps 36 6323.740500 0
mps 36 6323.643503 1 44
mps 36 6313.374814 1 34
mps 36 6313.374814 1 35
mps 36 6307.862100 1 43
mps 36 6072.882381 1 12
mps 36 6042.047385 1 37
mps 36 6040.065578 2 37 38
mps 36 6038.924361 2 12 13
mps 36 5887.925975 1 40
mps 36 5887.923694 2 12 37
mps 36 5757.396370 1 31
mps 36 5659.694178 2 37 40
mps 36 5631.230632 2 12 40
mps 36 5630.059059 2 31 37
mps 36 5295.200599 1 42
mps 36 5266.816743 2 12 42
mps 36 5255.141007 2 42 43
mps 36 5229.037918 2 37 42
mps 36 5202.009643 2 31 40
mps 36 5076.477359 2 31 42
mps 36 5000.625077 1 39
mps 36 4982.829230 2 12 39
mps 36 4855.344238 2 31 39
mps 36 4746.325996 2 39 40
mps 36 4717.359446 3 31 39 40
mps 36 4672.899733 2 39 42
mps 36 4606.279263 2 40 42
mps 36 4554.293664 3 31 40 42
mps 36 4442.815206 3 39 40 42
mps 36 4312.377041 1 41
mps 36 4308.322145 2 37 41
mps 36 4118.633472 2 39 41
mps 36 3491.621031 2 40 41
mps 37 6095.435450 0
mps 37 6075.379714 1 34
mps 37 6075.379714 1 35
mps 37 6055.214873 1 12
mps 37 5999.839312 1 40
mps 37 5983.641312 2 12 40
mps 37 5982.138304 1 31
mps 37 5912.311601 1 42
mps 37 5856.980466 2 31 40
mps 37 5825.440165 1 41
mps 37 5813.742334 1 36
mps 37 5806.154042 2 35 36
mps 37 5806.154042 2 34 36
mps 37 5771.607515 2 36 40
mps 37 5769.436814 2 40 42
mps 37 5696.240576 1 38
mps 37 5680.622649 2 12 38
mps 37 5623.387927 2 40 41
mps 37 5597.293399 2 31 38
mps 37 5582.986576 2 38 40
mps 37 5503.776350 2 38 42
mps 37 5471.706055 3 38 40 42
mps 37 5391.989225 2 36 38
mps 37 5380.146890 2 38 41
mps 37 5299.992598 3 38 40 41
mps 37 5167.536409 1 39
mps 37 4637.762674 2 38 39
mps 38 5774.357160 0
mps 38 5375.162287 1 37
mps 38 5373.180481 2 36 37
mps 38 5348.524155 2 37 41
mps 38 5263.923942 2 37 39
mps 39 6239.704445 0
mps 39 6232.837517 1 43
mps 39 5999.637081 1 12
mps 39 5987.903298 2 12 14
mps 39 5954.987664 2 12 13
mps 39 5707.720083 1 40
mps 39 5693.705146 1 31
mps 39 5475.114120 2 12 40
mps 39 5342.288784 1 42
mps 39 5330.892004 2 12 42
mps 39 5322.657972 2 42 43
mps 39 5311.805405 1 37
mps 39 5200.567060 2 37 38
mps 39 5181.904591 2 31 42
mps 39 5178.476007 2 12 37
mps 39 5065.668602 2 31 40
mps 39 4943.636444 2 31 37
mps 39 4916.589022 1 36
mps 39 4909.583929 2 12 36
mps 39 4894.761353 2 37 40
mps 39 4791.653014 2 31 36
mps 39 4719.987919 2 36 42
mps 39 4657.315907 2 37 42
mps 39 4650.156685 3 31 37 40
mps 39 4612.651019 2 40 42
mps 39 4607.452829 3 31 40 42
mps 39 4586.485288 1 41
mps 39 4566.120104 2 36 40
mps 39 4449.186962 3 36 40 42
mps 39 4392.741718 2 36 41
mps 39 4332.493037 2 36 37
mps 39 4281.658816 3 36 37 42
mps 39 4280.818726 3 37 40 42
mps 39 4235.734147 3 36 37 40
mps 39 3986.322987 2 37 41
mps 39 3730.657358 2 40 41
mps 39 3538.712422 3 37 40 41
mps 40 7965.799660 0
mps 40 7870.203521 1 37
mps 40 7854.581296 2 37 42
mps 40 7797.332786 2 37 41
mps 40 7529.985135 1 36
mps 40 7487.850315 2 36 37
mps 40 7443.931648 2 31 36
mps 40 7433.815297 1 39
mps 40 7371.281831 2 31 39
mps 40 7308.534748 2 36 42
mps 40 7267.818319 2 39 42
mps 40 7179.516217 2 36 39
mps 40 7178.629014 2 36 41
mps 40 7143.557094 2 39 41
mps 40 7037.733791 3 36 39 42
mps 40 6782.365093 3 36 39 41
mps 41 5656.814959 0
mps 41 5639.897022 1 44
mps 41 5603.611656 1 43
mps 41 5386.819675 1 37
mps 41 5379.504956 2 37 43
mps 41 5360.181543 2 37 38
mps 41 5313.948939 2 37 40
mps 41 5095.522936 1 12
mps 41 4932.520851 2 12 37
mps 41 4877.136552 2 12 14
mps 41 4859.102836 3 12 14 37
mps 41 4690.630780 2 12 13
mps 41 4111.539135 1 31
mps 41 4019.901831 2 31 37
mps 41 4003.595802 1 39
mps 41 3748.882820 2 12 39
mps 41 3737.130519 3 12 14 39
mps 41 3713.337598 2 39 40
mps 41 3708.527456 3 12 39 40
mps 41 3645.451501 1 36
mps 41 3599.514280 3 12 13 39
mps 41 3399.195307 2 12 36
mps 41 3379.510090 3 12 14 36
mps 41 3294.095380 2 36 40
mps 41 3235.576357 3 12 13 36
mps 41 3121.604197 2 36 39
mps 41 3074.848754 3 12 36 39
mps 41 3072.319869 2 31 39
mps 41 3022.863262 1 42
mps 41 3000.812864 2 37 42
mps 41 2943.700801 2 42 44
mps 41 2873.740146 2 12 42
mps 41 2818.451151 3 12 13 42
mps 41 2817.217441 2 42 43
mps 41 2730.330448 2 31 36
mps 41 2724.453073 3 36 39 40
mps 41 2520.345846 3 31 36 39
mps 41 2365.054571 2 31 42
mps 41 2332.775617 2 39 42
mps 41 2105.161678 2 36 42
mps 41 2031.215426 3 31 39 42
mps 41 1974.974546 3 36 39 42
mps 41 1867.001188 3 31 36 42
mps 42 6349.861209 0
mps 42 6166.737361 1 37
mps 42 6151.115136 2 37 40
mps 42 6005.232980 1 12
mps 42 5943.476475 2 12 14
mps 42 5920.073861 2 12 37
mps 42 5866.758264 2 12 13
mps 42 5530.831515 1 31
mps 42 5492.009665 2 31 37
mps 42 5452.445548 1 39
mps 42 5336.487903 2 12 39
mps 42 5321.321308 1 36
mps 42 5315.982583 2 36 43
mps 42 5286.448570 2 39 40
mps 42 5199.167342 2 12 36
mps 42 5124.720205 2 36 39
mps 42 5099.870921 2 36 40
mps 42 5019.030960 2 31 39
mps 42 4982.937779 3 36 39 40
mps 42 4849.912504 2 31 36
mps 42 3715.909512 1 41
mps 42 3675.508130 2 41 44
mps 42 3582.309461 2 41 43
mps 43 6166.396062 0
mps 43 6165.441583 1 55
mps 43 6160.023326 1 31
mps 43 6159.529133 1 39
mps 43 6154.619281 1 53
mps 43 6153.102301 1 54
mps 43 6150.517663 1 36
mps 43 6145.178937 2 36 42
mps 43 6137.796418 1 34
mps 43 6137.796418 1 35
mps 43 6113.192758 1 41
mps 43 6062.490506 1 47
mps 43 5981.118540 1 45
mps 43 5979.592708 2 41 42
mps 43 5979.135360 2 41 45
mps 43 5925.620166 1 51
mps 43 5925.620166 1 52
mps 43 5921.646036 2 45 47
mps 43 5852.623874 2 35 52
mps 43 5852.623874 2 34 52
mps 43 5852.623874 2 35 51
mps 43 5852.623874 2 34 51
mps 43 5781.968550 2 45 51
mps 43 5781.968550 2 45 52
mps 43 5411.110156 1 46
mps 43 5401.578549 2 41 46
mps 43 5339.365457 2 46 47
mps 43 5200.831820 2 45 46
mps 43 5126.443424 2 46 51
mps 43 5126.443424 2 46 52
mps 43 5052.532085 3 45 46 52
mps 43 5052.532085 3 45 46 51
mps 43 3953.203305 1 44
mps 43 3947.471362 2 44 53
mps 43 3942.428092 2 44 55
mps 43 3749.646626 2 44 47
mps 43 3389.040270 2 44 51
mps 43 3389.040270 2 44 52
mps 44 5976.125577 0
mps 44 5976.028581 1 36
mps 44 5959.207639 1 41
mps 44 5918.806258 2 41 42
mps 44 5918.239262 1 34
mps 44 5918.239262 1 35
mps 44 5529.054942 1 45
mps 44 5519.223918 2 35 45
mps 44 5519.223918 2 34 45
mps 44 4485.443097 1 46
mps 44 3811.481350 2 45 46
mps 44 3762.932820 1 43
mps 44 3695.231577 2 43 47
mps 44 3560.017211 2 43 45
mps 44 3472.850589 2 43 51
mps 44 3472.850589 2 43 52
mps 44 3093.472462 2 43 46
mps 44 3089.082112 3 43 46 51
mps 44 3089.082112 3 43 46 52
mps 44 2811.656488 3 43 45 46
mps 45 5816.929902 0
mps 45 5631.652381 1 43
mps 45 5626.751138 2 43 46
mps 45 5369.859268 1 44
mps 45 5163.067727 2 44 46
mps 46 5491.437065 0
mps 46 5474.838472 1 34
mps 46 5474.838472 1 35
mps 46 4736.151159 1 43
mps 46 4731.249917 2 43 45
mps 46 4726.837169 2 43 51
mps 46 4726.837169 2 43 52
mps 46 4000.754585 1 44
mps 46 3793.963044 2 44 45
mps 47 7836.272747 0
mps 47 7829.424448 1 53
mps 47 7823.775647 1 55
mps 47 7732.367191 1 43
mps 47 7730.558736 1 49
mps 47 7721.059309 2 43 49
mps 47 7664.665948 2 43 44
mps 47 7585.752111 1 50
mps 47 7568.544755 2 43 50
mps 47 7537.045910 1 51
mps 47 7537.045910 1 52
mps 47 7479.332083 2 49 50
mps 47 7368.630384 2 50 51
mps 47 7368.630384 2 50 52
mps 47 5385.005341 1 48
mps 47 5358.798712 2 43 48
mps 47 4635.385727 2 48 51
mps 47 4635.385727 2 48 52
mps 48 7731.410693 0
mps 48 7485.067542 1 49
mps 48 7121.232048 1 50
mps 48 6667.281436 2 49 50
mps 48 5280.143287 1 47
mps 48 5103.803910 2 47 50
mps 48 4879.249720 2 47 51
mps 48 4879.249720 2 47 52
mps 49 7637.776081 0
mps 49 7532.062069 1 47
mps 49 7391.432929 1 48
mps 49 7235.120651 2 48 50
mps 50 7650.033452 0
mps 50 7399.512816 1 47
mps 50 7039.854807 1 48
mps 50 6883.542529 2 48 49
mps 51 7384.471295 0
mps 51 7332.346302 1 25
mps 51 7180.000448 1 34
mps 51 7180.000448 1 35
mps 51 7143.695399 1 43
mps 51 7134.381410 2 43 46
mps 51 7128.457926 2 25 43
mps 51 7085.244458 1 47
mps 51 7004.025429 2 43 47
mps 51 6980.995880 2 35 47
mps 51 6980.995880 2 34 47
mps 51 6894.827904 2 35 43
mps 51 6894.827904 2 34 43
mps 51 6884.677701 1 53
mps 51 6853.613168 2 43 44
mps 51 6849.939534 1 54
mps 51 6807.846232 3 35 43 44
mps 51 6807.846232 3 34 43 44
mps 51 6796.276013 2 35 53
mps 51 6796.276013 2 34 53
mps 51 6790.957841 2 35 54
mps 51 6790.957841 2 34 54
mps 51 6782.815069 2 43 53
mps 51 6774.977192 2 47 53
mps 51 6748.966210 2 43 54
mps 51 6741.209241 2 47 54
mps 51 6684.350892 2 47 48
mps 51 6636.492668 1 55
mps 51 6578.701477 2 35 55
mps 51 6578.701477 2 34 55
mps 51 6549.085515 2 47 55
mps 51 6523.483815 2 43 55
mps 51 6325.656577 2 53 54
mps 51 6050.584612 2 53 55
mps 51 5982.033788 2 54 55
mps 51 5439.978856 3 53 54 55
mps 51 71.794706 1 52
mps 52 7384.471295 0
mps 52 7332.346302 1 25
mps 52 7180.000448 1 34
mps 52 7180.000448 1 35
mps 52 7143.695399 1 43
mps 52 7134.381410 2 43 46
mps 52 7128.457926 2 25 43
mps 52 7085.244458 1 47
mps 52 7004.025429 2 43 47
mps 52 6980.995880 2 35 47
mps 52 6980.995880 2 34 47
mps 52 6894.827904 2 35 43
mps 52 6894.827904 2 34 43
mps 52 6884.677701 1 53
mps 52 6853.613168 2 43 44
mps 52 6849.939534 1 54
mps 52 6807.846232 3 35 43 44
mps 52 6807.846232 3 34 43 44
mps 52 6796.276013 2 35 53
mps 52 6796.276013 2 34 53
mps 52 6790.957841 2 35 54
mps 52 6790.957841 2 34 54
mps 52 6782.815069 2 43 53
mps 52 6774.977192 2 47 53
mps 52 6748.966210 2 43 54
mps 52 6741.209241 2 47 54
mps 52 6684.350892 2 47 48
mps 52 6636.492668 1 55
mps 52 6578.701477 2 35 55
mps 52 6578.701477 2 34 55
mps 52 6549.085515 2 47 55
mps 52 6523.483815 2 43 55
mps 52 6325.656577 2 53 54
mps 52 6050.584612 2 53 55
mps 52 5982.033788 2 54 55
mps 52 5439.978856 3 53 54 55
mps 52 71.794706 1 51
mps 53 7144.865205 0
mps 53 7138.016906 1 47
mps 53 7133.088424 1 43
mps 53 6645.071611 1 51
mps 53 6645.071611 1 52
mps 53 6602.979991 2 51 55
mps 53 6602.979991 2 52 55
mps 54 7148.402104 0
mps 54 7135.108343 1 43
mps 54 7132.301355 1 34
mps 54 7132.301355 1 35
mps 54 6613.870343 1 51
mps 54 6613.870343 1 52
mps 54 6546.591329 2 51 55
mps 54 6546.591329 2 52 55
mps 55 8016.669392 0
mps 55 8015.714913 1 43
mps 55 8004.172292 1 47
mps 55 8000.601441 1 34
mps 55 8000.601441 1 35
mps 55 7268.690765 1 51
mps 55 7268.690765 1 52
mps 55 7226.599144 2 51 53
mps 55 7226.599144 2 52 53
mps 55 7201.411751 2 51 54
mps 55 7201.411751 2 52 54
MPSList_Ends