MPSList_Begins
mps 0 755.852204 0
mps 0 755.278134 1 33
mps 0 754.485663 1 21
mps 0 754.308209 2 11 39
mps 0 754.304338 1 16
mps 0 753.462649 2 11 69
mps 0 752.902559 1 2
mps 0 749.729820 1 58
mps 0 749.723791 1 9
mps 0 749.030638 2 9 58
mps 0 745.976272 1 6
mps 0 744.401029 2 6 58
mps 0 741.537363 1 5
mps 0 741.169191 1 55
mps 0 740.809348 1 38
mps 0 739.915569 2 55 58
mps 0 739.735250 2 5 6
mps 0 739.664585 2 9 38
mps 0 738.427638 2 5 58
mps 0 737.279183 1 52
mps 0 736.890012 2 5 55
mps 0 736.780298 2 2 38
mps 0 734.413482 2 6 38
mps 0 733.974878 2 5 52
mps 0 731.637488 2 5 38
mps 0 730.108366 2 52 58
mps 0 729.082641 2 38 55
mps 0 725.994535 2 38 52
mps 0 723.446325 2 52 55
mps 0 719.137744 3 38 52 55
mps 0 715.928848 1 56
mps 0 714.320346 2 2 56
mps 0 713.097678 2 33 56
mps 0 708.874414 2 9 56
mps 0 706.353269 2 6 56
mps 0 702.888316 2 55 56
mps 0 702.397950 2 5 56
mps 0 702.195658 3 5 55 56
mps 0 690.568744 2 52 56
mps 0 685.504066 1 51
mps 0 677.174471 3 52 55 56
mps 0 674.638504 2 38 51
mps 0 631.524578 2 51 56
mps 1 80.727613 0
mps 2 1281.254862 0
mps 2 1279.517636 1 55
mps 2 1278.305217 1 0
mps 2 1271.929198 1 52
mps 2 1264.062501 1 51
mps 3 72.673069 0
mps 4 878.422526 0
mps 5 1232.645613 0
mps 5 1229.781038 1 11
mps 5 1229.522291 1 6
mps 5 1228.640434 1 9
mps 5 1223.055380 2 6 9
mps 5 1218.330772 1 0
mps 5 1214.701633 1 55
mps 5 1211.573060 1 52
mps 5 1210.991725 2 9 52
mps 5 1210.422455 2 0 55
mps 5 1208.268755 2 0 52
mps 5 1195.583485 2 52 55
mps 5 1193.607014 3 9 52 55
mps 5 1141.530058 1 51
mps 6 1652.909539 0
mps 6 1650.646357 1 59
mps 6 1649.786217 1 5
mps 6 1647.953844 2 5 9
mps 6 1646.153237 1 11
mps 6 1643.033607 1 0
mps 6 1631.891734 1 52
mps 6 1629.783182 2 52 59
mps 6 1617.208959 1 55
mps 6 1597.697449 2 52 55
mps 6 1552.126706 1 51
mps 7 2082.688358 0
mps 7 2078.745617 1 51
mps 8 1744.215400 0
mps 8 1735.071573 1 45
mps 8 1734.282762 1 38
mps 8 1733.476781 1 56
mps 8 1728.962289 2 45 56
mps 8 1727.645630 2 38 45
mps 8 1710.020674 1 39
mps 8 1657.119928 1 46
mps 9 1520.321039 0
mps 9 1516.398519 1 52
mps 9 1516.315861 1 5
mps 9 1515.817183 2 5 52
mps 9 1514.483487 2 5 6
mps 9 1514.192626 1 0
mps 9 1498.937124 1 55
mps 9 1498.126205 2 52 55
mps 9 1496.149734 3 5 52 55
mps 9 1460.534867 1 51
mps 10 305.046402 0
mps 10 280.869323 1 27
mps 11 1064.204623 0
mps 11 1063.400807 2 0 39
mps 11 1061.375483 1 55
mps 11 1061.340048 1 5
mps 11 1057.448321 1 6
mps 11 1048.642486 1 52
mps 11 1008.877047 1 51
mps 12 1765.613031 0
mps 12 1764.506473 1 48
mps 13 1685.534965 0
mps 13 1684.699996 1 48
mps 13 1683.952720 1 26
mps 14 248.102752 0
mps 15 881.755999 0
mps 15 864.537422 1 55
mps 15 833.850501 1 68
mps 15 821.822163 2 55 68
mps 15 814.208128 1 59
mps 15 790.753394 2 59 68
mps 16 2023.055723 0
mps 16 2021.507857 1 0
mps 16 2017.770539 1 39
mps 16 2006.531053 1 46
mps 16 1987.869224 1 21
mps 16 1975.175752 1 58
mps 16 1966.475930 1 38
mps 16 1963.542687 2 21 38
mps 16 1950.989382 2 38 58
mps 16 1791.790715 1 56
mps 16 1790.975965 2 52 56
mps 17 3283.907145 0
mps 17 3283.452963 1 39
mps 17 3275.026695 1 21
mps 17 3266.136804 1 50
mps 17 3260.719102 1 58
mps 17 3241.748371 1 38
mps 17 3166.661209 1 56
mps 18 426.435855 0
mps 18 426.144416 1 63
mps 19 3153.779361 0
mps 19 3152.313412 1 52
mps 19 3150.716372 1 59
mps 19 3140.243975 1 66
mps 20 3370.230341 0
mps 21 2377.986107 0
mps 21 2377.072449 1 45
mps 21 2376.619566 1 0
mps 21 2375.884836 1 59
mps 21 2369.105657 1 17
mps 21 2362.240918 1 50
mps 21 2352.940011 1 39
mps 21 2344.372836 2 39 50
mps 21 2342.799608 1 16
mps 21 2341.064920 1 57
mps 21 2305.957851 1 46
mps 21 2278.512252 1 58
mps 21 2272.057052 2 57 58
mps 21 2269.345658 2 39 58
mps 21 2261.279080 2 46 58
mps 21 2201.287941 1 38
mps 21 2198.354698 2 16 38
mps 21 2194.485101 2 38 46
mps 21 2165.804945 2 38 58
mps 21 1945.035994 1 56
mps 22 1914.350898 0
mps 22 1898.725867 1 27
mps 23 1545.650754 0
mps 23 1362.185102 1 24
mps 24 1819.641741 0
mps 24 1795.490237 1 50
mps 24 1636.176089 1 23
mps 24 1615.853188 2 23 50
mps 25 1152.815965 0
mps 25 1152.615808 1 69
mps 25 1145.348482 1 34
mps 26 1277.666326 0
mps 26 1276.084081 1 13
mps 26 1244.427792 1 27
mps 27 414.132234 0
mps 27 411.121166 1 58
mps 27 408.686808 1 38
mps 27 398.507203 1 22
mps 27 397.908058 2 22 38
mps 27 395.089577 1 56
mps 27 389.955156 1 10
mps 27 385.574567 2 22 56
mps 27 380.893700 1 26
mps 27 376.201308 2 10 56
mps 27 375.793697 2 10 22
mps 27 374.591451 3 10 22 56
mps 27 372.751976 2 22 26
mps 27 372.660944 2 26 56
mps 27 370.137514 2 10 26
mps 28 1049.746373 0
mps 29 1965.543364 0
mps 30 1271.706998 0
mps 30 1258.242111 1 32
mps 30 1256.091806 1 31
mps 31 1495.325925 0
mps 31 1490.448918 1 59
mps 31 1487.443259 1 52
mps 31 1479.710733 1 30
mps 31 1479.232718 2 30 52
mps 31 1460.725880 1 51
mps 32 2756.127467 0
mps 32 2750.491968 1 38
mps 32 2742.662580 1 30
mps 32 2737.140526 1 56
mps 33 1181.790364 0
mps 33 1181.216294 1 0
mps 33 1180.274563 1 45
mps 33 1170.638388 1 51
mps 34 218.030278 0
mps 34 210.562795 1 25
mps 35 1525.817898 0
mps 35 1522.889661 1 56
mps 35 1386.615126 1 36
mps 35 1368.808994 2 36 56
mps 36 980.946059 0
mps 36 841.743287 1 35
mps 36 828.421161 2 35 56
mps 37 714.737227 0
mps 37 705.717120 1 38
mps 37 693.367316 1 56
mps 38 1578.735112 0
mps 38 1576.443979 1 45
mps 38 1573.289686 1 27
mps 38 1573.099613 1 32
mps 38 1572.507376 1 41
mps 38 1572.275093 2 27 41
mps 38 1569.715006 1 37
mps 38 1568.802474 1 8
mps 38 1568.736441 2 27 37
mps 38 1567.659497 2 37 41
mps 38 1567.654503 2 8 41
mps 38 1566.141527 2 8 37
mps 38 1565.689717 2 8 27
mps 38 1563.692257 1 0
mps 38 1563.579602 2 0 27
mps 38 1563.554973 2 0 32
mps 38 1562.993675 1 50
mps 38 1562.787668 2 41 50
mps 38 1561.946069 2 0 41
mps 38 1560.507392 2 37 50
mps 38 1559.940583 2 0 37
mps 38 1559.391252 2 0 8
mps 38 1555.079547 1 39
mps 38 1553.960632 2 8 50
mps 38 1553.292870 2 37 39
mps 38 1552.277818 2 0 50
mps 38 1545.270905 2 0 39
mps 38 1539.809260 2 39 50
mps 38 1536.576339 1 17
mps 38 1533.049436 2 17 39
mps 38 1527.417086 1 57
mps 38 1522.155319 1 16
mps 38 1521.531656 2 39 57
mps 38 1521.080348 2 16 50
mps 38 1518.039344 2 16 17
mps 38 1513.872402 2 0 16
mps 38 1511.756405 2 16 39
mps 38 1505.160011 2 16 57
mps 38 1498.204824 1 46
mps 38 1484.092962 2 46 50
mps 38 1475.371791 2 16 46
mps 38 1402.036947 1 21
mps 38 1400.621209 1 58
mps 38 1400.369729 2 37 58
mps 38 1400.044265 2 8 58
mps 38 1398.714279 2 0 58
mps 38 1397.160887 2 17 58
mps 38 1393.831645 2 0 21
mps 38 1387.385269 2 39 58
mps 38 1386.732074 2 21 46
mps 38 1377.710409 2 16 21
mps 38 1376.434839 2 16 58
mps 38 1361.328989 2 57 58
mps 38 1361.276233 2 46 58
mps 38 1287.913902 2 21 58
mps 38 928.900870 1 56
mps 39 1946.208143 0
mps 39 1945.753961 1 17
mps 39 1943.532236 1 58
mps 39 1940.922960 1 16
mps 39 1922.552578 1 38
mps 39 1921.162047 1 21
mps 39 1918.627241 1 45
mps 39 1918.161246 2 45 58
mps 39 1912.013417 1 8
mps 39 1908.112857 2 21 45
mps 39 1900.021018 2 8 21
mps 39 1899.428033 2 38 45
mps 39 1898.709211 2 8 38
mps 39 1895.654261 2 8 45
mps 39 1890.652930 3 8 38 45
mps 39 1866.969017 1 56
mps 39 1847.186222 2 8 56
mps 39 1845.393849 2 45 56
mps 39 1842.066146 3 8 45 56
mps 39 1432.365404 1 46
mps 40 2927.915041 0
mps 40 2927.162942 1 48
mps 40 2923.906328 1 66
mps 40 2885.409136 1 59
mps 41 1939.525127 0
mps 41 1938.582856 1 63
mps 41 1938.029837 1 62
mps 41 1937.579809 1 58
mps 41 1933.297391 1 38
mps 41 1922.449508 1 56
mps 41 1917.926506 2 56 62
mps 41 1916.237672 2 56 63
mps 42 1972.021314 0
mps 43 1635.915970 0
mps 43 1635.865635 1 63
mps 43 1635.593007 1 50
mps 44 1909.873645 0
mps 45 1967.923538 0
mps 45 1967.052194 1 54
mps 45 1967.009880 1 21
mps 45 1966.407736 1 33
mps 45 1965.632405 1 38
mps 45 1964.722784 1 58
mps 45 1958.779711 1 8
mps 45 1951.982820 1 56
mps 45 1947.468328 2 8 56
mps 45 1940.342636 1 39
mps 45 1939.351795 2 39 58
mps 45 1930.407652 2 39 56
mps 45 1872.064198 1 46
mps 46 2607.186298 0
mps 46 2605.449801 1 63
mps 46 2590.661628 1 16
mps 46 2589.190992 1 50
mps 46 2573.188300 1 58
mps 46 2556.498439 2 50 58
mps 46 2535.158042 1 21
mps 46 2526.656009 1 38
mps 46 2520.090826 1 8
mps 46 2519.853169 2 21 38
mps 46 2515.641131 2 8 50
mps 46 2511.326958 1 45
mps 46 2510.290279 2 38 50
mps 46 2507.276082 2 45 50
mps 46 2505.795310 2 8 58
mps 46 2498.840287 2 45 58
mps 46 2483.189058 2 8 21
mps 46 2471.054260 2 21 45
mps 46 2467.821033 2 8 38
mps 46 2453.849272 2 8 45
mps 46 2452.013360 2 38 45
mps 46 2437.449481 3 8 38 45
mps 46 2371.126998 1 56
mps 46 2342.722528 2 50 56
mps 46 2315.498148 2 8 56
mps 46 2308.717888 2 45 56
mps 46 2308.144981 3 45 50 56
mps 46 2295.277624 3 8 45 56
mps 46 2093.343558 1 39
mps 46 2092.346387 2 39 50
mps 46 2087.897429 2 21 39
mps 46 2081.175247 2 39 58
mps 46 2061.166805 2 8 39
mps 46 2056.122741 2 38 39
mps 46 2044.692930 2 39 45
mps 46 2043.782329 3 38 39 45
mps 46 1956.709215 2 39 56
mps 46 1949.444924 3 39 45 56
mps 47 1982.517673 0
mps 48 368.873292 0
mps 48 368.121192 1 40
mps 48 368.038322 1 13
mps 48 367.766733 1 12
mps 49 983.906201 0
mps 49 981.823477 1 51
mps 49 900.407519 1 52
mps 50 774.105980 0
mps 50 774.050384 1 52
mps 50 773.783017 1 43
mps 50 758.364543 1 38
mps 50 758.360792 1 21
mps 50 756.335640 1 17
mps 50 756.110675 1 46
mps 50 749.954476 1 24
mps 50 748.319316 2 24 52
mps 50 747.697859 2 24 46
mps 50 746.207308 2 17 24
mps 50 744.205011 1 58
mps 50 741.998813 2 38 46
mps 50 741.841265 2 21 24
mps 50 740.506335 1 56
mps 50 740.073468 2 24 38
mps 50 738.646515 2 56 58
mps 50 727.515150 2 46 58
mps 50 725.733949 2 24 58
mps 50 722.825473 2 24 56
mps 50 712.101866 2 46 56
mps 50 626.442163 1 57
mps 50 625.686423 2 24 57
mps 50 616.200536 2 57 58
mps 51 940.251595 0
mps 51 938.168870 1 49
mps 51 936.308854 1 7
mps 51 929.099618 1 33
mps 51 923.059233 1 2
mps 51 905.651550 1 31
mps 51 884.924019 1 11
mps 51 884.280823 1 59
mps 51 883.000213 2 11 33
mps 51 880.465423 1 9
mps 51 878.383568 2 2 11
mps 51 872.751049 2 11 31
mps 51 871.401971 2 9 31
mps 51 869.903457 1 0
mps 51 869.565325 2 0 2
mps 51 868.762173 2 0 33
mps 51 868.060632 2 2 9
mps 51 865.748349 2 0 56
mps 51 854.671669 2 0 31
mps 51 854.419590 2 11 59
mps 51 849.136040 1 5
mps 51 845.960271 2 9 59
mps 51 841.139301 2 9 11
mps 51 840.987649 2 2 5
mps 51 839.468762 1 6
mps 51 835.700745 2 5 31
mps 51 833.772019 2 2 6
mps 51 831.548410 2 0 59
mps 51 829.650806 2 0 11
mps 51 823.534033 2 0 9
mps 51 822.874193 2 6 31
mps 51 820.190644 2 5 59
mps 51 815.658668 2 6 59
mps 51 810.126562 2 5 11
mps 51 808.358093 3 0 9 11
mps 51 806.678544 2 0 5
mps 51 806.351439 2 5 9
mps 51 802.055733 2 6 11
mps 51 796.283519 3 5 9 11
mps 51 795.017241 2 6 9
mps 51 794.251645 2 0 6
mps 51 792.399734 3 0 5 11
mps 51 785.157157 3 6 9 11
mps 51 782.296752 3 0 5 9
mps 51 780.556169 3 0 6 11
mps 51 771.766415 3 0 6 9
mps 51 767.089819 2 5 6
mps 51 759.214303 1 55
mps 51 759.160358 2 2 55
mps 51 757.478643 3 5 6 9
mps 51 753.472500 3 0 5 6
mps 51 752.923012 3 5 6 11
mps 51 749.629768 2 31 55
mps 51 737.171704 1 52
mps 51 736.272108 2 33 52
mps 51 732.097792 2 9 55
mps 51 717.942284 2 11 55
mps 51 716.068010 2 0 55
mps 51 711.963539 2 11 52
mps 51 710.031018 3 0 9 55
mps 51 706.321048 2 6 55
mps 51 701.172012 2 5 55
mps 51 699.586797 3 5 9 55
mps 51 699.027512 2 0 52
mps 51 698.338559 3 0 11 55
mps 51 697.025560 3 6 9 55
mps 51 694.752175 3 0 11 52
mps 51 692.530638 2 9 52
mps 51 691.873604 3 6 11 55
mps 51 691.094679 3 0 5 55
mps 51 689.206066 3 9 11 52
mps 51 689.076792 3 0 6 55
mps 51 684.622889 3 5 11 55
mps 51 682.549355 2 5 52
mps 51 675.977589 3 0 9 52
mps 51 675.945661 3 0 5 52
mps 51 674.406259 3 5 6 55
mps 51 668.761675 2 6 52
mps 51 668.604764 3 6 11 52
mps 51 666.096544 3 5 9 52
mps 51 657.124206 3 0 6 52
mps 51 644.663826 3 6 9 52
mps 51 643.925444 3 5 6 52
mps 51 594.986005 2 52 59
mps 51 588.977819 3 5 52 59
mps 51 587.432955 3 6 52 59
mps 51 437.833577 2 52 55
mps 51 434.357974 3 6 52 55
mps 51 429.450551 3 5 52 55
mps 52 924.308958 0
mps 52 924.253361 1 50
mps 52 922.843009 1 19
mps 52 920.386438 1 9
mps 52 916.426292 1 31
mps 52 916.060859 2 9 31
mps 52 914.983293 1 2
mps 52 914.404994 1 53
mps 52 913.265659 2 31 53
mps 52 910.482634 2 2 53
mps 52 908.746820 1 11
mps 52 906.380657 2 2 11
mps 52 905.735937 1 0
mps 52 904.451722 2 0 2
mps 52 903.803392 2 0 56
mps 52 903.291153 1 6
mps 52 903.236405 1 5
mps 52 902.737728 2 5 9
mps 52 902.620753 2 11 53
mps 52 901.583938 2 0 53
mps 52 899.882710 2 5 53
mps 52 899.240376 2 6 53
mps 52 899.230789 2 2 5
mps 52 898.362470 2 0 11
mps 52 898.028801 2 2 6
mps 52 897.203599 2 6 11
mps 52 896.858609 3 6 11 53
mps 52 895.673920 2 0 5
mps 52 895.382855 2 0 6
mps 52 894.030097 2 5 11
mps 52 893.839711 3 0 6 11
mps 52 887.338600 2 5 6
mps 52 882.126076 1 69
mps 52 881.767714 3 5 6 11
mps 52 877.048242 2 53 69
mps 52 876.950134 2 2 69
mps 52 872.944795 2 11 69
mps 52 872.363910 2 0 69
mps 52 869.137994 2 6 69
mps 52 862.819666 2 5 69
mps 52 859.774340 3 5 6 69
mps 52 840.810275 1 49
mps 52 837.966262 2 11 49
mps 52 831.155374 2 0 49
mps 52 830.486113 2 6 49
mps 52 826.165468 2 5 49
mps 52 815.688975 2 49 69
mps 52 813.330398 3 5 49 69
mps 52 721.229067 1 51
mps 52 693.778793 2 51 69
mps 52 678.319758 2 49 51
mps 52 642.229854 2 51 59
mps 52 606.936209 2 51 55
mps 52 602.398090 3 51 55 69
mps 52 601.137097 3 49 51 55
mps 53 781.334251 0
mps 53 771.856782 1 54
mps 53 771.430287 1 52
mps 53 766.860041 2 52 54
mps 54 494.642878 0
mps 54 493.771533 1 45
mps 54 485.165409 1 53
mps 55 530.597034 0
mps 55 528.859807 1 2
mps 55 527.767894 1 11
mps 55 515.914021 1 0
mps 55 513.378456 1 15
mps 55 512.653054 1 5
mps 55 509.213119 1 9
mps 55 508.695125 2 2 9
mps 55 508.005703 2 0 5
mps 55 503.962796 2 0 9
mps 55 503.339591 2 0 15
mps 55 501.483564 2 5 15
mps 55 498.395250 2 9 15
mps 55 496.562054 2 5 9
mps 55 494.896454 1 6
mps 55 491.032207 2 0 6
mps 55 485.115504 2 5 6
mps 55 481.967970 2 6 15
mps 55 481.220659 2 6 9
mps 55 478.742778 3 6 9 15
mps 55 478.193380 3 5 6 15
mps 55 349.559742 1 51
mps 55 343.193555 2 15 51
mps 55 281.417984 1 59
mps 55 280.736469 2 5 59
mps 55 276.247432 2 0 59
mps 55 273.442639 2 9 59
mps 55 268.336147 2 6 59
mps 55 235.266885 2 51 52
mps 55 191.992536 2 51 59
mps 56 1943.820160 0
mps 56 1940.891922 1 35
mps 56 1933.081541 1 8
mps 56 1927.879441 1 45
mps 56 1927.569796 2 35 36
mps 56 1926.744541 1 41
mps 56 1926.680918 2 22 41
mps 56 1926.434222 2 41 63
mps 56 1925.333406 3 35 36 41
mps 56 1924.833218 1 32
mps 56 1924.777502 1 27
mps 56 1924.577858 3 27 35 36
mps 56 1922.600139 2 32 45
mps 56 1922.450249 1 37
mps 56 1922.387606 2 32 41
mps 56 1921.788697 2 8 41
mps 56 1921.770157 2 8 45
mps 56 1919.905420 2 32 37
mps 56 1918.918425 3 35 36 37
mps 56 1917.736153 2 8 27
mps 56 1917.672760 2 8 37
mps 56 1915.543196 2 41 45
mps 56 1915.232412 2 27 45
mps 56 1914.374824 2 27 41
mps 56 1914.071237 2 27 32
mps 56 1910.895937 2 37 45
mps 56 1910.220514 1 50
mps 56 1907.920725 2 37 41
mps 56 1906.968820 2 27 37
mps 56 1904.887533 3 37 41 45
mps 56 1904.716134 3 27 37 41
mps 56 1903.948190 2 32 50
mps 56 1903.896804 1 0
mps 56 1902.998517 2 8 50
mps 56 1901.964259 2 0 52
mps 56 1900.845675 2 45 50
mps 56 1900.521441 3 0 35 36
mps 56 1899.995433 2 41 50
mps 56 1899.741696 2 0 51
mps 56 1898.325337 2 0 8
mps 56 1896.452617 2 27 50
mps 56 1896.012005 2 37 50
mps 56 1894.944637 3 37 45 50
mps 56 1894.236581 2 0 45
mps 56 1891.950219 3 37 41 50
mps 56 1891.343233 3 27 37 50
mps 56 1890.325459 2 0 32
mps 56 1890.128673 2 0 41
mps 56 1889.309552 2 0 27
mps 56 1888.221990 3 0 27 41
mps 56 1888.202360 2 0 37
mps 56 1887.932951 3 0 41 45
mps 56 1887.060611 3 0 37 45
mps 56 1882.676175 3 0 27 37
mps 56 1881.842603 3 0 37 41
mps 56 1873.849936 2 0 50
mps 56 1871.179606 3 0 41 50
mps 56 1870.931588 3 0 37 50
mps 56 1870.307785 3 0 27 50
mps 56 1864.581033 1 39
mps 56 1863.168128 2 35 39
mps 56 1862.407055 2 32 39
mps 56 1861.547817 3 35 36 39
mps 56 1854.646050 2 39 45
mps 56 1854.511372 2 39 41
mps 56 1854.302017 2 27 39
mps 56 1851.882820 2 37 39
mps 56 1850.736111 3 27 37 39
mps 56 1850.557005 3 37 39 45
mps 56 1849.834480 3 37 39 41
mps 56 1828.758996 2 39 50
mps 56 1828.733148 2 0 39
mps 56 1828.057964 3 37 39 50
mps 56 1827.707134 3 0 27 39
mps 56 1826.574224 1 17
mps 56 1825.971546 3 0 39 41
mps 56 1825.839081 3 0 37 39
mps 56 1821.307076 2 17 37
mps 56 1821.036935 2 17 41
mps 56 1820.739110 2 17 27
mps 56 1812.839370 2 17 50
mps 56 1806.896631 1 57
mps 56 1803.707532 2 37 57
mps 56 1802.985130 2 27 57
mps 56 1802.871683 2 0 17
mps 56 1801.527536 3 0 39 50
mps 56 1787.052556 2 0 57
mps 56 1765.607185 2 17 39
mps 56 1763.750730 3 17 39 50
mps 56 1759.268607 3 0 17 39
mps 56 1747.555833 2 39 57
mps 56 1745.968939 2 17 57
mps 56 1745.823862 3 0 39 57
mps 56 1712.555152 1 16
mps 56 1710.547662 2 16 37
mps 56 1707.887639 2 16 27
mps 56 1707.826664 2 16 52
mps 56 1707.760859 1 46
mps 56 1707.468118 2 37 46
mps 56 1703.324822 2 16 41
mps 56 1697.325982 2 16 50
mps 56 1688.897001 2 0 16
mps 56 1688.798164 2 0 46
mps 56 1686.801137 3 0 16 50
mps 56 1663.752051 2 46 50
mps 56 1657.899796 2 16 39
mps 56 1656.856768 2 17 46
mps 56 1654.766651 2 16 17
mps 56 1652.895815 3 0 16 39
mps 56 1651.519896 3 16 39 50
mps 56 1643.218444 3 16 17 39
mps 56 1631.990459 2 46 57
mps 56 1618.082886 2 16 57
mps 56 1614.293438 3 16 39 57
mps 56 1551.220026 2 16 46
mps 56 1517.758194 1 58
mps 56 1517.061852 2 8 58
mps 56 1514.957700 2 45 58
mps 56 1512.631294 2 41 58
mps 56 1512.313866 2 27 58
mps 56 1512.199699 2 50 58
mps 56 1510.870047 1 21
mps 56 1510.780881 2 21 27
mps 56 1508.905611 2 21 50
mps 56 1504.656924 2 37 58
mps 56 1503.175631 2 21 37
mps 56 1494.840668 2 0 58
mps 56 1491.673789 2 0 21
mps 56 1488.592166 3 0 37 58
mps 56 1473.936808 2 21 39
mps 56 1470.813102 3 0 21 39
mps 56 1468.454692 2 21 57
mps 56 1455.404303 2 17 58
mps 56 1451.073378 2 17 21
mps 56 1444.994949 2 39 58
mps 56 1443.983569 3 39 50 58
mps 56 1430.137529 3 0 39 58
mps 56 1411.155484 3 17 39 58
mps 56 1398.908933 2 21 46
mps 56 1365.334240 2 57 58
mps 56 1353.182432 2 16 21
mps 56 1351.029984 2 16 58
mps 56 1350.411023 3 16 21 39
mps 56 1344.441076 3 16 21 46
mps 56 1342.478936 2 46 58
mps 56 1332.441607 3 39 57 58
mps 56 1308.416565 3 16 39 58
mps 56 1305.638313 3 46 57 58
mps 56 1293.985917 1 38
mps 56 1293.827574 2 38 41
mps 56 1291.118955 2 37 38
mps 56 1290.820695 2 27 38
mps 56 1290.132780 2 38 45
mps 56 1286.243933 2 38 50
mps 56 1278.769761 2 0 38
mps 56 1273.765110 3 16 57 58
mps 56 1264.424750 3 16 46 58
mps 56 1249.636822 2 17 38
mps 56 1246.589950 2 38 39
mps 56 1245.829364 3 38 39 50
mps 56 1241.198728 3 0 38 39
mps 56 1236.014671 2 38 57
mps 56 1230.703460 3 17 38 39
mps 56 1216.976779 3 38 39 57
mps 56 1203.396298 2 21 58
mps 56 1178.055251 3 21 39 58
mps 56 1173.504329 3 21 57 58
mps 56 1167.499220 2 38 46
mps 56 1157.061938 3 21 46 58
mps 56 1135.320137 2 16 38
mps 56 1120.085439 3 16 38 39
mps 56 1107.586286 3 16 21 58
mps 56 1107.328568 3 16 38 46
mps 56 1056.380269 2 38 58
mps 56 1055.549433 3 0 38 58
mps 56 1055.189436 3 17 38 58
mps 56 1055.107995 2 21 38
mps 56 1039.108385 3 21 38 46
mps 56 1036.857010 3 21 38 39
mps 56 1015.954677 3 38 39 58
mps 56 998.197322 3 38 57 58
mps 56 978.981399 3 16 21 38
mps 56 978.442826 3 38 46 58
mps 56 951.611196 3 16 38 58
mps 56 891.185035 3 21 38 58
mps 57 3500.704942 0
mps 57 3463.783756 1 21
mps 57 3449.386915 1 38
mps 57 3363.781413 1 56
mps 57 3360.113824 2 56 58
mps 57 3353.041125 1 50
mps 57 3334.689718 2 38 50
mps 57 3266.097476 2 50 56
mps 58 1948.547996 0
mps 58 1946.602679 1 41
mps 58 1945.872089 1 39
mps 58 1945.536929 1 27
mps 58 1945.347243 1 45
mps 58 1944.881248 2 39 45
mps 58 1942.425613 1 0
mps 58 1941.994734 2 0 45
mps 58 1925.359954 1 17
mps 58 1918.647027 1 50
mps 58 1917.577282 2 0 50
mps 58 1914.860547 2 17 50
mps 58 1914.549999 1 46
mps 58 1900.668026 1 16
mps 58 1885.954474 2 46 50
mps 58 1885.809274 2 16 50
mps 58 1849.074142 1 21
mps 58 1842.038990 2 21 50
mps 58 1840.368573 2 16 21
mps 58 1770.434094 1 38
mps 58 1757.786013 2 38 50
mps 58 1754.947546 2 16 38
mps 58 1734.951098 2 21 38
mps 58 1522.486031 1 56
mps 58 1520.626211 2 50 56
mps 58 1518.818442 2 56 57
mps 59 1645.639033 0
mps 59 1643.537763 1 21
mps 59 1643.375851 1 6
mps 59 1642.576044 1 19
mps 59 1640.762026 1 31
mps 59 1622.196359 1 61
mps 59 1608.698277 1 68
mps 59 1603.133128 1 40
mps 59 1596.786894 2 40 61
mps 59 1594.263489 2 61 68
mps 59 1589.668262 1 51
mps 59 1587.923560 2 40 51
mps 59 1586.450024 2 51 61
mps 59 1585.874345 2 40 68
mps 59 1578.091162 1 15
mps 59 1573.607029 2 51 68
mps 59 1565.601170 2 15 68
mps 59 1561.375746 2 15 61
mps 59 1559.803241 2 15 40
mps 59 1544.545791 2 15 51
mps 59 1510.669049 2 51 52
mps 59 1507.105214 3 15 51 52
mps 59 1396.459983 1 55
mps 59 1386.814593 2 55 61
mps 59 1382.171608 2 40 55
mps 59 1371.215535 2 55 68
mps 59 1362.016600 2 15 55
mps 60 1254.790539 0
mps 60 1250.031855 1 65
mps 60 1249.429737 1 61
mps 60 1158.986278 1 64
mps 60 1125.013675 2 64 65
mps 61 1951.405252 0
mps 61 1946.044451 1 60
mps 61 1944.075099 1 62
mps 61 1944.027027 2 60 62
mps 61 1927.962578 1 59
mps 61 1893.219402 1 64
mps 61 1889.049554 2 62 64
mps 61 1876.474105 2 59 64
mps 61 1657.185020 1 65
mps 61 1650.776679 2 62 65
mps 61 1649.989583 2 59 65
mps 61 1580.015574 2 64 65
mps 61 1564.032734 3 62 64 65
mps 62 1217.630471 0
mps 62 1216.135181 1 41
mps 62 1210.300318 1 61
mps 62 682.997992 1 63
mps 63 1278.875920 0
mps 63 1278.825585 1 43
mps 63 1278.584481 1 18
mps 63 1277.933649 1 41
mps 63 1277.623330 2 41 56
mps 63 1277.139424 1 46
mps 63 744.243441 1 62
mps 64 1977.112967 0
mps 64 1918.927116 1 61
mps 64 1905.410131 2 61 65
mps 64 1905.201988 3 61 62 65
mps 64 1881.308706 1 60
mps 64 1857.561397 2 60 65
mps 64 1836.030727 2 60 61
mps 64 1792.254794 3 60 61 65
mps 65 1999.933614 0
mps 65 1995.174930 1 60
mps 65 1971.427621 2 60 64
mps 65 1705.713382 1 61
mps 65 1692.196397 2 61 64
mps 65 1689.816200 3 61 62 64
mps 65 1668.249573 3 60 61 64
mps 66 565.464028 0
mps 66 561.455315 1 40
mps 66 557.636195 1 69
mps 66 551.928643 1 19
mps 67 854.839080 0
mps 68 1352.422868 0
mps 68 1315.482112 1 59
mps 68 1304.517370 1 15
mps 68 1292.027378 2 15 59
mps 69 1112.102956 0
mps 69 1111.902799 1 25
mps 69 1104.275122 1 66
mps 69 1069.920074 1 52
mps 69 1066.813200 2 52 66
MPSList_Ends